%YAML 1.1
%TAG !u! tag:unity3d.com,2011:
--- !u!74 &7400000
AnimationClip:
  m_ObjectHideFlags: 0
  m_CorrespondingSourceObject: {fileID: 0}
  m_PrefabInstance: {fileID: 0}
  m_PrefabAsset: {fileID: 0}
  m_Name: DemonHair
  serializedVersion: 6
  m_Legacy: 0
  m_Compressed: 0
  m_UseHighQualityCurve: 0
  m_RotationCurves: []
  m_CompressedRotationCurves: []
  m_EulerCurves: []
  m_PositionCurves: []
  m_ScaleCurves: []
  m_FloatCurves:
  - curve:
      serializedVersion: 2
      m_Curve:
      - serializedVersion: 3
        time: 0
        value: 0
        inSlope: 4.6528096
        outSlope: 4.6528096
        tangentMode: 0
        weightedMode: 0
        inWeight: 0.33333334
        outWeight: 0.33333334
      - serializedVersion: 3
        time: 0.041666668
        value: 0.19386707
        inSlope: 9.143783
        outSlope: 9.143783
        tangentMode: 0
        weightedMode: 0
        inWeight: 0.33333334
        outWeight: 0.33333334
      - serializedVersion: 3
        time: 1.5833334
        value: 99.80613
        inSlope: 9.143838
        outSlope: 9.143838
        tangentMode: 0
        weightedMode: 0
        inWeight: 0.33333334
        outWeight: 0.33333334
      - serializedVersion: 3
        time: 1.7916667
        value: 89.59999
        inSlope: -114.60009
        outSlope: -114.60009
        tangentMode: 0
        weightedMode: 0
        inWeight: 0.33333334
        outWeight: 0.33333334
      - serializedVersion: 3
        time: 2.375
        value: 2.7999878
        inSlope: -64.200035
        outSlope: -64.200035
        tangentMode: 0
        weightedMode: 0
        inWeight: 0.33333334
        outWeight: 0.33333334
      - serializedVersion: 3
        time: 2.4166667
        value: 0.72499377
        inSlope: -33.59978
        outSlope: -33.59978
        tangentMode: 0
        weightedMode: 0
        inWeight: 0.33333334
        outWeight: 0.33333334
      - serializedVersion: 3
        time: 2.4583335
        value: 0.0000006697128
        inSlope: -6.5931396
        outSlope: -6.5931396
        tangentMode: 0
        weightedMode: 0
        inWeight: 0.33333334
        outWeight: 0.33333334
      - serializedVersion: 3
        time: 2.5
        value: 0.1755634
        inSlope: 8.287761
        outSlope: 8.287761
        tangentMode: 0
        weightedMode: 0
        inWeight: 0.33333334
        outWeight: 0.33333334
      - serializedVersion: 3
        time: 4.125
        value: 99.82443
        inSlope: 8.287727
        outSlope: 8.287727
        tangentMode: 0
        weightedMode: 0
        inWeight: 0.33333334
        outWeight: 0.33333334
      - serializedVersion: 3
        time: 4.291667
        value: 93.30803
        inSlope: -100.07298
        outSlope: -100.07298
        tangentMode: 0
        weightedMode: 0
        inWeight: 0.33333334
        outWeight: 0.33333334
      - serializedVersion: 3
        time: 4.875
        value: 3.0908227
        inSlope: -70.68058
        outSlope: -70.68058
        tangentMode: 0
        weightedMode: 0
        inWeight: 0.33333334
        outWeight: 0.33333334
      - serializedVersion: 3
        time: 4.916667
        value: 0.80185515
        inSlope: -37.08969
        outSlope: -37.08969
        tangentMode: 0
        weightedMode: 0
        inWeight: 0.33333334
        outWeight: 0.33333334
      - serializedVersion: 3
        time: 4.9583335
        value: 0.00000066971205
        inSlope: -7.5155325
        outSlope: -7.5155325
        tangentMode: 0
        weightedMode: 0
        inWeight: 0.33333334
        outWeight: 0.33333334
      - serializedVersion: 3
        time: 5
        value: 0.1755632
        inSlope: 8.287773
        outSlope: 8.287773
        tangentMode: 0
        weightedMode: 0
        inWeight: 0.33333334
        outWeight: 0.33333334
      - serializedVersion: 3
        time: 6.625
        value: 99.82443
        inSlope: 8.287727
        outSlope: 8.287727
        tangentMode: 0
        weightedMode: 0
        inWeight: 0.33333334
        outWeight: 0.33333334
      - serializedVersion: 3
        time: 6.791667
        value: 93.308014
        inSlope: -100.073074
        outSlope: -100.073074
        tangentMode: 0
        weightedMode: 0
        inWeight: 0.33333334
        outWeight: 0.33333334
      - serializedVersion: 3
        time: 7.375
        value: 3.0908346
        inSlope: -70.68086
        outSlope: -70.68086
        tangentMode: 0
        weightedMode: 0
        inWeight: 0.33333334
        outWeight: 0.33333334
      - serializedVersion: 3
        time: 7.416667
        value: 0.80185515
        inSlope: -37.089836
        outSlope: -37.089836
        tangentMode: 0
        weightedMode: 0
        inWeight: 0.33333334
        outWeight: 0.33333334
      - serializedVersion: 3
        time: 7.4583335
        value: 0.0000007033265
        inSlope: -7.409788
        outSlope: -7.409788
        tangentMode: 0
        weightedMode: 0
        inWeight: 0.33333334
        outWeight: 0.33333334
      - serializedVersion: 3
        time: 7.5
        value: 0.18437514
        inSlope: 8.700036
        outSlope: 8.700036
        tangentMode: 0
        weightedMode: 0
        inWeight: 0.33333334
        outWeight: 0.33333334
      - serializedVersion: 3
        time: 9.083334
        value: 99.81563
        inSlope: 8.699875
        outSlope: 8.699875
        tangentMode: 0
        weightedMode: 0
        inWeight: 0.33333334
        outWeight: 0.33333334
      - serializedVersion: 3
        time: 9.25
        value: 93.925
        inSlope: -91.199905
        outSlope: -91.199905
        tangentMode: 0
        weightedMode: 0
        inWeight: 0.33333334
        outWeight: 0.33333334
      - serializedVersion: 3
        time: 9.875
        value: 2.7999878
        inSlope: -64.19965
        outSlope: -64.19965
        tangentMode: 0
        weightedMode: 0
        inWeight: 0.33333334
        outWeight: 0.33333334
      - serializedVersion: 3
        time: 9.916667
        value: 0.7250015
        inSlope: -33.599598
        outSlope: -33.599598
        tangentMode: 0
        weightedMode: 0
        inWeight: 0.33333334
        outWeight: 0.33333334
      - serializedVersion: 3
        time: 9.958334
        value: 0
        inSlope: -17.399904
        outSlope: -17.399904
        tangentMode: 0
        weightedMode: 0
        inWeight: 0.33333334
        outWeight: 0.33333334
      m_PreInfinity: 2
      m_PostInfinity: 2
      m_RotationOrder: 4
    attribute: blendShape.demon_hair_key_1
    path: hair_9
    classID: 137
    script: {fileID: 0}
  - curve:
      serializedVersion: 2
      m_Curve:
      - serializedVersion: 3
        time: 0
        value: 0.019766487
        inSlope: 1.4053005
        outSlope: 1.4053005
        tangentMode: 0
        weightedMode: 0
        inWeight: 0.33333334
        outWeight: 0.33333334
      - serializedVersion: 3
        time: 0.041666668
        value: 0.078320675
        inSlope: 1.8573372
        outSlope: 1.8573372
        tangentMode: 0
        weightedMode: 0
        inWeight: 0.33333334
        outWeight: 0.33333334
      - serializedVersion: 3
        time: 1.75
        value: 22.08322
        inSlope: 16.479164
        outSlope: 16.479164
        tangentMode: 0
        weightedMode: 0
        inWeight: 0.33333334
        outWeight: 0.33333334
      - serializedVersion: 3
        time: 3.7916667
        value: 45.857918
        inSlope: 5.114126
        outSlope: 5.114126
        tangentMode: 0
        weightedMode: 0
        inWeight: 0.33333334
        outWeight: 0.33333334
      - serializedVersion: 3
        time: 4.416667
        value: 47.34369
        inSlope: -1.6990873
        outSlope: -1.6990873
        tangentMode: 0
        weightedMode: 0
        inWeight: 0.33333334
        outWeight: 0.33333334
      - serializedVersion: 3
        time: 6.4583335
        value: 1.1037514
        inSlope: -10.240599
        outSlope: -10.240599
        tangentMode: 0
        weightedMode: 0
        inWeight: 0.33333334
        outWeight: 0.33333334
      - serializedVersion: 3
        time: 6.625
        value: 0.04643202
        inSlope: -2.2011933
        outSlope: -2.2011933
        tangentMode: 0
        weightedMode: 0
        inWeight: 0.33333334
        outWeight: 0.33333334
      - serializedVersion: 3
        time: 6.666667
        value: 0.00000015289869
        inSlope: -0.31668448
        outSlope: -0.31668448
        tangentMode: 0
        weightedMode: 0
        inWeight: 0.33333334
        outWeight: 0.33333334
      - serializedVersion: 3
        time: 6.7083335
        value: 0.020041214
        inSlope: 0.95097536
        outSlope: 0.95097536
        tangentMode: 0
        weightedMode: 0
        inWeight: 0.33333334
        outWeight: 0.33333334
      - serializedVersion: 3
        time: 8.75
        value: 22.0451
        inSlope: 7.4154377
        outSlope: 7.4154377
        tangentMode: 0
        weightedMode: 0
        inWeight: 0.33333334
        outWeight: 0.33333334
      - serializedVersion: 3
        time: 9.25
        value: 23.503775
        inSlope: 0.02291116
        outSlope: 0.02291116
        tangentMode: 0
        weightedMode: 0
        inWeight: 0.33333334
        outWeight: 0.33333334
      - serializedVersion: 3
        time: 9.958334
        value: 23.52
        inSlope: 0.022888009
        outSlope: 0.022888009
        tangentMode: 0
        weightedMode: 0
        inWeight: 0.33333334
        outWeight: 0.33333334
      m_PreInfinity: 2
      m_PostInfinity: 2
      m_RotationOrder: 4
    attribute: blendShape.demon_hair_key_2
    path: hair_9
    classID: 137
    script: {fileID: 0}
  - curve:
      serializedVersion: 2
      m_Curve:
      - serializedVersion: 3
        time: 0
        value: 0.7119827
        inSlope: 48.905846
        outSlope: 48.905846
        tangentMode: 0
        weightedMode: 0
        inWeight: 0.33333334
        outWeight: 0.33333334
      - serializedVersion: 3
        time: 0.041666668
        value: 2.7497263
        inSlope: 63.047287
        outSlope: 63.047287
        tangentMode: 0
        weightedMode: 0
        inWeight: 0.33333334
        outWeight: 0.33333334
      - serializedVersion: 3
        time: 0.75
        value: 97.492516
        inSlope: 32.996815
        outSlope: 32.996815
        tangentMode: 0
        weightedMode: 0
        inWeight: 0.33333334
        outWeight: 0.33333334
      - serializedVersion: 3
        time: 0.9583334
        value: 95.45477
        inSlope: -31.74464
        outSlope: -31.74464
        tangentMode: 0
        weightedMode: 0
        inWeight: 0.33333334
        outWeight: 0.33333334
      - serializedVersion: 3
        time: 2.4166667
        value: 0.1810428
        inSlope: -8.543709
        outSlope: -8.543709
        tangentMode: 0
        weightedMode: 0
        inWeight: 0.33333334
        outWeight: 0.33333334
      - serializedVersion: 3
        time: 2.4583335
        value: 0.00000039276375
        inSlope: -0.93696153
        outSlope: -0.93696153
        tangentMode: 0
        weightedMode: 0
        inWeight: 0.33333334
        outWeight: 0.33333334
      - serializedVersion: 3
        time: 2.5
        value: 0.10296195
        inSlope: 4.8624654
        outSlope: 4.8624654
        tangentMode: 0
        weightedMode: 0
        inWeight: 0.33333334
        outWeight: 0.33333334
      - serializedVersion: 3
        time: 4.2083335
        value: 61.518105
        inSlope: -0.64279413
        outSlope: -0.64279413
        tangentMode: 0
        weightedMode: 0
        inWeight: 0.33333334
        outWeight: 0.33333334
      - serializedVersion: 3
        time: 5.541667
        value: 0.6135429
        inSlope: -14.349565
        outSlope: -14.349565
        tangentMode: 0
        weightedMode: 0
        inWeight: 0.33333334
        outWeight: 0.33333334
      - serializedVersion: 3
        time: 5.5833335
        value: 0.1565212
        inSlope: -7.362543
        outSlope: -7.362543
        tangentMode: 0
        weightedMode: 0
        inWeight: 0.33333334
        outWeight: 0.33333334
      - serializedVersion: 3
        time: 5.625
        value: 0
        inSlope: 3.7282252
        outSlope: 3.7282252
        tangentMode: 0
        weightedMode: 0
        inWeight: 0.33333334
        outWeight: 0.33333334
      - serializedVersion: 3
        time: 5.666667
        value: 0.4672108
        inSlope: 21.811337
        outSlope: 21.811337
        tangentMode: 0
        weightedMode: 0
        inWeight: 0.33333334
        outWeight: 0.33333334
      - serializedVersion: 3
        time: 5.9583335
        value: 24.16643
        inSlope: 125.0304
        outSlope: 125.0304
        tangentMode: 0
        weightedMode: 0
        inWeight: 0.33333334
        outWeight: 0.33333334
      - serializedVersion: 3
        time: 6.625
        value: 99.53282
        inSlope: 21.811085
        outSlope: 21.811085
        tangentMode: 0
        weightedMode: 0
        inWeight: 0.33333334
        outWeight: 0.33333334
      - serializedVersion: 3
        time: 6.916667
        value: 96.47681
        inSlope: -29.627888
        outSlope: -29.627888
        tangentMode: 0
        weightedMode: 0
        inWeight: 0.33333334
        outWeight: 0.33333334
      - serializedVersion: 3
        time: 7.7083335
        value: 48.980125
        inSlope: -59.90863
        outSlope: -59.90863
        tangentMode: 0
        weightedMode: 0
        inWeight: 0.33333334
        outWeight: 0.33333334
      - serializedVersion: 3
        time: 8.458334
        value: 17.155333
        inSlope: -27.740303
        outSlope: -27.740303
        tangentMode: 0
        weightedMode: 0
        inWeight: 0.33333334
        outWeight: 0.33333334
      - serializedVersion: 3
        time: 8.5
        value: 16.02667
        inSlope: -35.22942
        outSlope: -35.22942
        tangentMode: 0
        weightedMode: 0
        inWeight: 0.33333334
        outWeight: 0.33333334
      - serializedVersion: 3
        time: 8.541667
        value: 14.219551
        inSlope: -43.216232
        outSlope: -43.216232
        tangentMode: 0
        weightedMode: 0
        inWeight: 0.33333334
        outWeight: 0.33333334
      - serializedVersion: 3
        time: 8.833334
        value: 3.8888898
        inSlope: -25.498127
        outSlope: -25.498127
        tangentMode: 0
        weightedMode: 0
        inWeight: 0.33333334
        outWeight: 0.33333334
      - serializedVersion: 3
        time: 9.083334
        value: 0.0852095
        inSlope: -4.043167
        outSlope: -4.043167
        tangentMode: 0
        weightedMode: 0
        inWeight: 0.33333334
        outWeight: 0.33333334
      - serializedVersion: 3
        time: 9.125
        value: 0
        inSlope: -1.0225296
        outSlope: -1.0225296
        tangentMode: 0
        weightedMode: 0
        inWeight: 0.33333334
        outWeight: 0.33333334
      - serializedVersion: 3
        time: 9.166667
        value: 0
        inSlope: 0
        outSlope: 0
        tangentMode: 0
        weightedMode: 0
        inWeight: 0.33333334
        outWeight: 0.33333334
      - serializedVersion: 3
        time: 9.958334
        value: 0
        inSlope: 0
        outSlope: 0
        tangentMode: 0
        weightedMode: 0
        inWeight: 0.33333334
        outWeight: 0.33333334
      m_PreInfinity: 2
      m_PostInfinity: 2
      m_RotationOrder: 4
    attribute: blendShape.demon_hair_key_3
    path: hair_9
    classID: 137
    script: {fileID: 0}
  - curve:
      serializedVersion: 2
      m_Curve:
      - serializedVersion: 3
        time: 0
        value: 0
        inSlope: 0
        outSlope: 0
        tangentMode: 0
        weightedMode: 0
        inWeight: 0.33333334
        outWeight: 0.33333334
      - serializedVersion: 3
        time: 0.75
        value: 0
        inSlope: 0.00000015529679
        outSlope: 0.00000015529679
        tangentMode: 0
        weightedMode: 0
        inWeight: 0.33333334
        outWeight: 0.33333334
      - serializedVersion: 3
        time: 0.7916667
        value: 0.000000012941405
        inSlope: 0.3259081
        outSlope: 0.3259081
        tangentMode: 0
        weightedMode: 0
        inWeight: 0.33333334
        outWeight: 0.33333334
      - serializedVersion: 3
        time: 0.8333334
        value: 0.02715902
        inSlope: 1.4163257
        outSlope: 1.4163257
        tangentMode: 0
        weightedMode: 0
        inWeight: 0.33333334
        outWeight: 0.33333334
      - serializedVersion: 3
        time: 0.875
        value: 0.11802708
        inSlope: 3.1542468
        outSlope: 3.1542468
        tangentMode: 0
        weightedMode: 0
        inWeight: 0.33333334
        outWeight: 0.33333334
      - serializedVersion: 3
        time: 0.9583334
        value: 0.5660519
        inSlope: 8.231773
        outSlope: 8.231773
        tangentMode: 0
        weightedMode: 0
        inWeight: 0.33333334
        outWeight: 0.33333334
      - serializedVersion: 3
        time: 1.125
        value: 3.405552
        inSlope: 28.617195
        outSlope: 28.617195
        tangentMode: 0
        weightedMode: 0
        inWeight: 0.33333334
        outWeight: 0.33333334
      - serializedVersion: 3
        time: 1.4166667
        value: 16.142927
        inSlope: 47.45557
        outSlope: 47.45557
        tangentMode: 0
        weightedMode: 0
        inWeight: 0.33333334
        outWeight: 0.33333334
      - serializedVersion: 3
        time: 1.5416667
        value: 21.856186
        inSlope: 43.822197
        outSlope: 43.822197
        tangentMode: 0
        weightedMode: 0
        inWeight: 0.33333334
        outWeight: 0.33333334
      - serializedVersion: 3
        time: 1.625
        value: 25.883425
        inSlope: 62.175293
        outSlope: 62.175293
        tangentMode: 0
        weightedMode: 0
        inWeight: 0.33333334
        outWeight: 0.33333334
      - serializedVersion: 3
        time: 1.9166667
        value: 53.901596
        inSlope: 111.70243
        outSlope: 111.70243
        tangentMode: 0
        weightedMode: 0
        inWeight: 0.33333334
        outWeight: 0.33333334
      - serializedVersion: 3
        time: 2.375
        value: 97.76598
        inSlope: 47.86027
        outSlope: 47.86027
        tangentMode: 0
        weightedMode: 0
        inWeight: 0.33333334
        outWeight: 0.33333334
      - serializedVersion: 3
        time: 2.5
        value: 98.21207
        inSlope: -59.244972
        outSlope: -59.244972
        tangentMode: 0
        weightedMode: 0
        inWeight: 0.33333334
        outWeight: 0.33333334
      - serializedVersion: 3
        time: 2.7083335
        value: 79.072975
        inSlope: -103.25529
        outSlope: -103.25529
        tangentMode: 0
        weightedMode: 0
        inWeight: 0.33333334
        outWeight: 0.33333334
      - serializedVersion: 3
        time: 3.2916667
        value: 16.670834
        inSlope: -100.61708
        outSlope: -100.61708
        tangentMode: 0
        weightedMode: 0
        inWeight: 0.33333334
        outWeight: 0.33333334
      - serializedVersion: 3
        time: 3.4166667
        value: 4.9370823
        inSlope: -81.71231
        outSlope: -81.71231
        tangentMode: 0
        weightedMode: 0
        inWeight: 0.33333334
        outWeight: 0.33333334
      - serializedVersion: 3
        time: 3.4583335
        value: 1.7879299
        inSlope: -59.244995
        outSlope: -59.244995
        tangentMode: 0
        weightedMode: 0
        inWeight: 0.33333334
        outWeight: 0.33333334
      - serializedVersion: 3
        time: 3.5
        value: 0
        inSlope: -19.064426
        outSlope: -19.064426
        tangentMode: 0
        weightedMode: 0
        inWeight: 0.33333334
        outWeight: 0.33333334
      - serializedVersion: 3
        time: 3.5416667
        value: 0.19923495
        inSlope: 10.173397
        outSlope: 10.173397
        tangentMode: 0
        weightedMode: 0
        inWeight: 0.33333334
        outWeight: 0.33333334
      - serializedVersion: 3
        time: 3.625
        value: 2.0330703
        inSlope: 36.08473
        outSlope: 36.08473
        tangentMode: 0
        weightedMode: 0
        inWeight: 0.33333334
        outWeight: 0.33333334
      - serializedVersion: 3
        time: 3.75
        value: 9.779159
        inSlope: 90.297455
        outSlope: 90.297455
        tangentMode: 0
        weightedMode: 0
        inWeight: 0.33333334
        outWeight: 0.33333334
      - serializedVersion: 3
        time: 3.9583335
        value: 33.743473
        inSlope: 109.403915
        outSlope: 109.403915
        tangentMode: 0
        weightedMode: 0
        inWeight: 0.33333334
        outWeight: 0.33333334
      - serializedVersion: 3
        time: 4.4583335
        value: 61.634724
        inSlope: 25.707603
        outSlope: 25.707603
        tangentMode: 0
        weightedMode: 0
        inWeight: 0.33333334
        outWeight: 0.33333334
      - serializedVersion: 3
        time: 4.916667
        value: 67.65543
        inSlope: 2.0759544
        outSlope: 2.0759544
        tangentMode: 0
        weightedMode: 0
        inWeight: 0.33333334
        outWeight: 0.33333334
      - serializedVersion: 3
        time: 5
        value: 66.288765
        inSlope: -55.257896
        outSlope: -55.257896
        tangentMode: 0
        weightedMode: 0
        inWeight: 0.33333334
        outWeight: 0.33333334
      - serializedVersion: 3
        time: 5.166667
        value: 49.620213
        inSlope: -120.63168
        outSlope: -120.63168
        tangentMode: 0
        weightedMode: 0
        inWeight: 0.33333334
        outWeight: 0.33333334
      - serializedVersion: 3
        time: 5.4583335
        value: 13.207183
        inSlope: -113.80092
        outSlope: -113.80092
        tangentMode: 0
        weightedMode: 0
        inWeight: 0.33333334
        outWeight: 0.33333334
      - serializedVersion: 3
        time: 5.541667
        value: 4.6047926
        inSlope: -86.22107
        outSlope: -86.22107
        tangentMode: 0
        weightedMode: 0
        inWeight: 0.33333334
        outWeight: 0.33333334
      - serializedVersion: 3
        time: 5.5833335
        value: 1.4531676
        inSlope: -55.25772
        outSlope: -55.25772
        tangentMode: 0
        weightedMode: 0
        inWeight: 0.33333334
        outWeight: 0.33333334
      - serializedVersion: 3
        time: 5.625
        value: 0
        inSlope: -17.438078
        outSlope: -17.438078
        tangentMode: 0
        weightedMode: 0
        inWeight: 0.33333334
        outWeight: 0.33333334
      - serializedVersion: 3
        time: 5.666667
        value: 0
        inSlope: 0
        outSlope: 0
        tangentMode: 0
        weightedMode: 0
        inWeight: 0.33333334
        outWeight: 0.33333334
      - serializedVersion: 3
        time: 6.125
        value: 0
        inSlope: 0
        outSlope: 0
        tangentMode: 0
        weightedMode: 0
        inWeight: 0.33333334
        outWeight: 0.33333334
      - serializedVersion: 3
        time: 6.166667
        value: 0
        inSlope: 0.000009410156
        outSlope: 0.000009410156
        tangentMode: 0
        weightedMode: 0
        inWeight: 0.33333334
        outWeight: 0.33333334
      - serializedVersion: 3
        time: 6.2083335
        value: 0.0000007841767
        inSlope: 2.4668467
        outSlope: 2.4668467
        tangentMode: 0
        weightedMode: 0
        inWeight: 0.33333334
        outWeight: 0.33333334
      - serializedVersion: 3
        time: 6.25
        value: 0.20556979
        inSlope: 11.6003475
        outSlope: 11.6003475
        tangentMode: 0
        weightedMode: 0
        inWeight: 0.33333334
        outWeight: 0.33333334
      - serializedVersion: 3
        time: 6.291667
        value: 0.96670145
        inSlope: 28.73523
        outSlope: 28.73523
        tangentMode: 0
        weightedMode: 0
        inWeight: 0.33333334
        outWeight: 0.33333334
      - serializedVersion: 3
        time: 6.3333335
        value: 2.6001718
        inSlope: 55.180473
        outSlope: 55.180473
        tangentMode: 0
        weightedMode: 0
        inWeight: 0.33333334
        outWeight: 0.33333334
      - serializedVersion: 3
        time: 6.375
        value: 5.565057
        inSlope: 91.745186
        outSlope: 91.745186
        tangentMode: 0
        weightedMode: 0
        inWeight: 0.33333334
        outWeight: 0.33333334
      - serializedVersion: 3
        time: 6.416667
        value: 10.245628
        inSlope: 129.82982
        outSlope: 129.82982
        tangentMode: 0
        weightedMode: 0
        inWeight: 0.33333334
        outWeight: 0.33333334
      - serializedVersion: 3
        time: 6.5
        value: 23.1097
        inSlope: 160.31863
        outSlope: 160.31863
        tangentMode: 0
        weightedMode: 0
        inWeight: 0.33333334
        outWeight: 0.33333334
      - serializedVersion: 3
        time: 6.666667
        value: 46.974262
        inSlope: 111.59968
        outSlope: 111.59968
        tangentMode: 0
        weightedMode: 0
        inWeight: 0.33333334
        outWeight: 0.33333334
      - serializedVersion: 3
        time: 6.916667
        value: 68.24266
        inSlope: 71.688484
        outSlope: 71.688484
        tangentMode: 0
        weightedMode: 0
        inWeight: 0.33333334
        outWeight: 0.33333334
      - serializedVersion: 3
        time: 7.375
        value: 93.92115
        inSlope: 33.37313
        outSlope: 33.37313
        tangentMode: 0
        weightedMode: 0
        inWeight: 0.33333334
        outWeight: 0.33333334
      - serializedVersion: 3
        time: 7.5
        value: 93.38242
        inSlope: -93.71564
        outSlope: -93.71564
        tangentMode: 0
        weightedMode: 0
        inWeight: 0.33333334
        outWeight: 0.33333334
      - serializedVersion: 3
        time: 7.666667
        value: 62.55104
        inSlope: -229.22873
        outSlope: -229.22873
        tangentMode: 0
        weightedMode: 0
        inWeight: 0.33333334
        outWeight: 0.33333334
      - serializedVersion: 3
        time: 7.875
        value: 15.205079
        inSlope: -191.91504
        outSlope: -191.91504
        tangentMode: 0
        weightedMode: 0
        inWeight: 0.33333334
        outWeight: 0.33333334
      - serializedVersion: 3
        time: 7.916667
        value: 7.8095374
        inSlope: -154.66293
        outSlope: -154.66293
        tangentMode: 0
        weightedMode: 0
        inWeight: 0.33333334
        outWeight: 0.33333334
      - serializedVersion: 3
        time: 7.9583335
        value: 2.316466
        inSlope: -93.714806
        outSlope: -93.714806
        tangentMode: 0
        weightedMode: 0
        inWeight: 0.33333334
        outWeight: 0.33333334
      - serializedVersion: 3
        time: 8
        value: 0
        inSlope: -27.797699
        outSlope: -27.797699
        tangentMode: 0
        weightedMode: 0
        inWeight: 0.33333334
        outWeight: 0.33333334
      - serializedVersion: 3
        time: 8.041667
        value: 0
        inSlope: 0
        outSlope: 0
        tangentMode: 0
        weightedMode: 0
        inWeight: 0.33333334
        outWeight: 0.33333334
      - serializedVersion: 3
        time: 9.083334
        value: 0
        inSlope: 0
        outSlope: 0
        tangentMode: 0
        weightedMode: 0
        inWeight: 0.33333334
        outWeight: 0.33333334
      - serializedVersion: 3
        time: 9.125
        value: 0
        inSlope: 14.127996
        outSlope: 14.127996
        tangentMode: 0
        weightedMode: 0
        inWeight: 0.33333334
        outWeight: 0.33333334
      - serializedVersion: 3
        time: 9.166667
        value: 1.177342
        inSlope: 49.75093
        outSlope: 49.75093
        tangentMode: 0
        weightedMode: 0
        inWeight: 0.33333334
        outWeight: 0.33333334
      - serializedVersion: 3
        time: 9.208334
        value: 4.145942
        inSlope: 85.18979
        outSlope: 85.18979
        tangentMode: 0
        weightedMode: 0
        inWeight: 0.33333334
        outWeight: 0.33333334
      - serializedVersion: 3
        time: 9.333334
        value: 18.279648
        inSlope: 124.03952
        outSlope: 124.03952
        tangentMode: 0
        weightedMode: 0
        inWeight: 0.33333334
        outWeight: 0.33333334
      - serializedVersion: 3
        time: 9.5
        value: 35.381824
        inSlope: 49.750328
        outSlope: 49.750328
        tangentMode: 0
        weightedMode: 0
        inWeight: 0.33333334
        outWeight: 0.33333334
      - serializedVersion: 3
        time: 9.583334
        value: 35.381775
        inSlope: -49.750877
        outSlope: -49.750877
        tangentMode: 0
        weightedMode: 0
        inWeight: 0.33333334
        outWeight: 0.33333334
      - serializedVersion: 3
        time: 9.75
        value: 18.27957
        inSlope: -124.03949
        outSlope: -124.03949
        tangentMode: 0
        weightedMode: 0
        inWeight: 0.33333334
        outWeight: 0.33333334
      - serializedVersion: 3
        time: 9.875
        value: 4.145879
        inSlope: -85.18945
        outSlope: -85.18945
        tangentMode: 0
        weightedMode: 0
        inWeight: 0.33333334
        outWeight: 0.33333334
      - serializedVersion: 3
        time: 9.916667
        value: 1.177308
        inSlope: -49.750164
        outSlope: -49.750164
        tangentMode: 0
        weightedMode: 0
        inWeight: 0.33333334
        outWeight: 0.33333334
      - serializedVersion: 3
        time: 9.958334
        value: 0
        inSlope: -28.255175
        outSlope: -28.255175
        tangentMode: 0
        weightedMode: 0
        inWeight: 0.33333334
        outWeight: 0.33333334
      m_PreInfinity: 2
      m_PostInfinity: 2
      m_RotationOrder: 4
    attribute: blendShape.demon_hair_key_4
    path: hair_9
    classID: 137
    script: {fileID: 0}
  m_PPtrCurves: []
  m_SampleRate: 24
  m_WrapMode: 0
  m_Bounds:
    m_Center: {x: 0, y: 0, z: 0}
    m_Extent: {x: 0, y: 0, z: 0}
  m_ClipBindingConstant:
    genericBindings:
    - serializedVersion: 2
      path: 2185936717
      attribute: 1570198800
      script: {fileID: 0}
      typeID: 137
      customType: 20
      isPPtrCurve: 0
    - serializedVersion: 2
      path: 2185936717
      attribute: 3298690218
      script: {fileID: 0}
      typeID: 137
      customType: 20
      isPPtrCurve: 0
    - serializedVersion: 2
      path: 2185936717
      attribute: 3013162044
      script: {fileID: 0}
      typeID: 137
      customType: 20
      isPPtrCurve: 0
    - serializedVersion: 2
      path: 2185936717
      attribute: 771596703
      script: {fileID: 0}
      typeID: 137
      customType: 20
      isPPtrCurve: 0
    pptrCurveMapping: []
  m_AnimationClipSettings:
    serializedVersion: 2
    m_AdditiveReferencePoseClip: {fileID: 0}
    m_AdditiveReferencePoseTime: 0
    m_StartTime: 0
    m_StopTime: 9.958334
    m_OrientationOffsetY: 0
    m_Level: 0
    m_CycleOffset: 0
    m_HasAdditiveReferencePose: 0
    m_LoopTime: 1
    m_LoopBlend: 1
    m_LoopBlendOrientation: 0
    m_LoopBlendPositionY: 0
    m_LoopBlendPositionXZ: 0
    m_KeepOriginalOrientation: 0
    m_KeepOriginalPositionY: 1
    m_KeepOriginalPositionXZ: 0
    m_HeightFromFeet: 0
    m_Mirror: 0
  m_EditorCurves:
  - curve:
      serializedVersion: 2
      m_Curve:
      - serializedVersion: 3
        time: 0
        value: 0
        inSlope: 4.6528096
        outSlope: 4.6528096
        tangentMode: 0
        weightedMode: 0
        inWeight: 0.33333334
        outWeight: 0.33333334
      - serializedVersion: 3
        time: 0.041666668
        value: 0.19386707
        inSlope: 9.143783
        outSlope: 9.143783
        tangentMode: 0
        weightedMode: 0
        inWeight: 0.33333334
        outWeight: 0.33333334
      - serializedVersion: 3
        time: 1.5833334
        value: 99.80613
        inSlope: 9.143838
        outSlope: 9.143838
        tangentMode: 0
        weightedMode: 0
        inWeight: 0.33333334
        outWeight: 0.33333334
      - serializedVersion: 3
        time: 1.7916667
        value: 89.59999
        inSlope: -114.60009
        outSlope: -114.60009
        tangentMode: 0
        weightedMode: 0
        inWeight: 0.33333334
        outWeight: 0.33333334
      - serializedVersion: 3
        time: 2.375
        value: 2.7999878
        inSlope: -64.200035
        outSlope: -64.200035
        tangentMode: 0
        weightedMode: 0
        inWeight: 0.33333334
        outWeight: 0.33333334
      - serializedVersion: 3
        time: 2.4166667
        value: 0.72499377
        inSlope: -33.59978
        outSlope: -33.59978
        tangentMode: 0
        weightedMode: 0
        inWeight: 0.33333334
        outWeight: 0.33333334
      - serializedVersion: 3
        time: 2.4583335
        value: 0.0000006697128
        inSlope: -6.5931396
        outSlope: -6.5931396
        tangentMode: 0
        weightedMode: 0
        inWeight: 0.33333334
        outWeight: 0.33333334
      - serializedVersion: 3
        time: 2.5
        value: 0.1755634
        inSlope: 8.287761
        outSlope: 8.287761
        tangentMode: 0
        weightedMode: 0
        inWeight: 0.33333334
        outWeight: 0.33333334
      - serializedVersion: 3
        time: 4.125
        value: 99.82443
        inSlope: 8.287727
        outSlope: 8.287727
        tangentMode: 0
        weightedMode: 0
        inWeight: 0.33333334
        outWeight: 0.33333334
      - serializedVersion: 3
        time: 4.291667
        value: 93.30803
        inSlope: -100.07298
        outSlope: -100.07298
        tangentMode: 0
        weightedMode: 0
        inWeight: 0.33333334
        outWeight: 0.33333334
      - serializedVersion: 3
        time: 4.875
        value: 3.0908227
        inSlope: -70.68058
        outSlope: -70.68058
        tangentMode: 0
        weightedMode: 0
        inWeight: 0.33333334
        outWeight: 0.33333334
      - serializedVersion: 3
        time: 4.916667
        value: 0.80185515
        inSlope: -37.08969
        outSlope: -37.08969
        tangentMode: 0
        weightedMode: 0
        inWeight: 0.33333334
        outWeight: 0.33333334
      - serializedVersion: 3
        time: 4.9583335
        value: 0.00000066971205
        inSlope: -7.5155325
        outSlope: -7.5155325
        tangentMode: 0
        weightedMode: 0
        inWeight: 0.33333334
        outWeight: 0.33333334
      - serializedVersion: 3
        time: 5
        value: 0.1755632
        inSlope: 8.287773
        outSlope: 8.287773
        tangentMode: 0
        weightedMode: 0
        inWeight: 0.33333334
        outWeight: 0.33333334
      - serializedVersion: 3
        time: 6.625
        value: 99.82443
        inSlope: 8.287727
        outSlope: 8.287727
        tangentMode: 0
        weightedMode: 0
        inWeight: 0.33333334
        outWeight: 0.33333334
      - serializedVersion: 3
        time: 6.791667
        value: 93.308014
        inSlope: -100.073074
        outSlope: -100.073074
        tangentMode: 0
        weightedMode: 0
        inWeight: 0.33333334
        outWeight: 0.33333334
      - serializedVersion: 3
        time: 7.375
        value: 3.0908346
        inSlope: -70.68086
        outSlope: -70.68086
        tangentMode: 0
        weightedMode: 0
        inWeight: 0.33333334
        outWeight: 0.33333334
      - serializedVersion: 3
        time: 7.416667
        value: 0.80185515
        inSlope: -37.089836
        outSlope: -37.089836
        tangentMode: 0
        weightedMode: 0
        inWeight: 0.33333334
        outWeight: 0.33333334
      - serializedVersion: 3
        time: 7.4583335
        value: 0.0000007033265
        inSlope: -7.409788
        outSlope: -7.409788
        tangentMode: 0
        weightedMode: 0
        inWeight: 0.33333334
        outWeight: 0.33333334
      - serializedVersion: 3
        time: 7.5
        value: 0.18437514
        inSlope: 8.700036
        outSlope: 8.700036
        tangentMode: 0
        weightedMode: 0
        inWeight: 0.33333334
        outWeight: 0.33333334
      - serializedVersion: 3
        time: 9.083334
        value: 99.81563
        inSlope: 8.699875
        outSlope: 8.699875
        tangentMode: 0
        weightedMode: 0
        inWeight: 0.33333334
        outWeight: 0.33333334
      - serializedVersion: 3
        time: 9.25
        value: 93.925
        inSlope: -91.199905
        outSlope: -91.199905
        tangentMode: 0
        weightedMode: 0
        inWeight: 0.33333334
        outWeight: 0.33333334
      - serializedVersion: 3
        time: 9.875
        value: 2.7999878
        inSlope: -64.19965
        outSlope: -64.19965
        tangentMode: 0
        weightedMode: 0
        inWeight: 0.33333334
        outWeight: 0.33333334
      - serializedVersion: 3
        time: 9.916667
        value: 0.7250015
        inSlope: -33.599598
        outSlope: -33.599598
        tangentMode: 0
        weightedMode: 0
        inWeight: 0.33333334
        outWeight: 0.33333334
      - serializedVersion: 3
        time: 9.958334
        value: 0
        inSlope: -17.399904
        outSlope: -17.399904
        tangentMode: 0
        weightedMode: 0
        inWeight: 0.33333334
        outWeight: 0.33333334
      m_PreInfinity: 2
      m_PostInfinity: 2
      m_RotationOrder: 4
    attribute: blendShape.demon_hair_key_1
    path: hair_9
    classID: 137
    script: {fileID: 0}
  - curve:
      serializedVersion: 2
      m_Curve:
      - serializedVersion: 3
        time: 0
        value: 0.019766487
        inSlope: 1.4053005
        outSlope: 1.4053005
        tangentMode: 0
        weightedMode: 0
        inWeight: 0.33333334
        outWeight: 0.33333334
      - serializedVersion: 3
        time: 0.041666668
        value: 0.078320675
        inSlope: 1.8573372
        outSlope: 1.8573372
        tangentMode: 0
        weightedMode: 0
        inWeight: 0.33333334
        outWeight: 0.33333334
      - serializedVersion: 3
        time: 1.75
        value: 22.08322
        inSlope: 16.479164
        outSlope: 16.479164
        tangentMode: 0
        weightedMode: 0
        inWeight: 0.33333334
        outWeight: 0.33333334
      - serializedVersion: 3
        time: 3.7916667
        value: 45.857918
        inSlope: 5.114126
        outSlope: 5.114126
        tangentMode: 0
        weightedMode: 0
        inWeight: 0.33333334
        outWeight: 0.33333334
      - serializedVersion: 3
        time: 4.416667
        value: 47.34369
        inSlope: -1.6990873
        outSlope: -1.6990873
        tangentMode: 0
        weightedMode: 0
        inWeight: 0.33333334
        outWeight: 0.33333334
      - serializedVersion: 3
        time: 6.4583335
        value: 1.1037514
        inSlope: -10.240599
        outSlope: -10.240599
        tangentMode: 0
        weightedMode: 0
        inWeight: 0.33333334
        outWeight: 0.33333334
      - serializedVersion: 3
        time: 6.625
        value: 0.04643202
        inSlope: -2.2011933
        outSlope: -2.2011933
        tangentMode: 0
        weightedMode: 0
        inWeight: 0.33333334
        outWeight: 0.33333334
      - serializedVersion: 3
        time: 6.666667
        value: 0.00000015289869
        inSlope: -0.31668448
        outSlope: -0.31668448
        tangentMode: 0
        weightedMode: 0
        inWeight: 0.33333334
        outWeight: 0.33333334
      - serializedVersion: 3
        time: 6.7083335
        value: 0.020041214
        inSlope: 0.95097536
        outSlope: 0.95097536
        tangentMode: 0
        weightedMode: 0
        inWeight: 0.33333334
        outWeight: 0.33333334
      - serializedVersion: 3
        time: 8.75
        value: 22.0451
        inSlope: 7.4154377
        outSlope: 7.4154377
        tangentMode: 0
        weightedMode: 0
        inWeight: 0.33333334
        outWeight: 0.33333334
      - serializedVersion: 3
        time: 9.25
        value: 23.503775
        inSlope: 0.02291116
        outSlope: 0.02291116
        tangentMode: 0
        weightedMode: 0
        inWeight: 0.33333334
        outWeight: 0.33333334
      - serializedVersion: 3
        time: 9.958334
        value: 23.52
        inSlope: 0.022888009
        outSlope: 0.022888009
        tangentMode: 0
        weightedMode: 0
        inWeight: 0.33333334
        outWeight: 0.33333334
      m_PreInfinity: 2
      m_PostInfinity: 2
      m_RotationOrder: 4
    attribute: blendShape.demon_hair_key_2
    path: hair_9
    classID: 137
    script: {fileID: 0}
  - curve:
      serializedVersion: 2
      m_Curve:
      - serializedVersion: 3
        time: 0
        value: 0.7119827
        inSlope: 48.905846
        outSlope: 48.905846
        tangentMode: 0
        weightedMode: 0
        inWeight: 0.33333334
        outWeight: 0.33333334
      - serializedVersion: 3
        time: 0.041666668
        value: 2.7497263
        inSlope: 63.047287
        outSlope: 63.047287
        tangentMode: 0
        weightedMode: 0
        inWeight: 0.33333334
        outWeight: 0.33333334
      - serializedVersion: 3
        time: 0.75
        value: 97.492516
        inSlope: 32.996815
        outSlope: 32.996815
        tangentMode: 0
        weightedMode: 0
        inWeight: 0.33333334
        outWeight: 0.33333334
      - serializedVersion: 3
        time: 0.9583334
        value: 95.45477
        inSlope: -31.74464
        outSlope: -31.74464
        tangentMode: 0
        weightedMode: 0
        inWeight: 0.33333334
        outWeight: 0.33333334
      - serializedVersion: 3
        time: 2.4166667
        value: 0.1810428
        inSlope: -8.543709
        outSlope: -8.543709
        tangentMode: 0
        weightedMode: 0
        inWeight: 0.33333334
        outWeight: 0.33333334
      - serializedVersion: 3
        time: 2.4583335
        value: 0.00000039276375
        inSlope: -0.93696153
        outSlope: -0.93696153
        tangentMode: 0
        weightedMode: 0
        inWeight: 0.33333334
        outWeight: 0.33333334
      - serializedVersion: 3
        time: 2.5
        value: 0.10296195
        inSlope: 4.8624654
        outSlope: 4.8624654
        tangentMode: 0
        weightedMode: 0
        inWeight: 0.33333334
        outWeight: 0.33333334
      - serializedVersion: 3
        time: 4.2083335
        value: 61.518105
        inSlope: -0.64279413
        outSlope: -0.64279413
        tangentMode: 0
        weightedMode: 0
        inWeight: 0.33333334
        outWeight: 0.33333334
      - serializedVersion: 3
        time: 5.541667
        value: 0.6135429
        inSlope: -14.349565
        outSlope: -14.349565
        tangentMode: 0
        weightedMode: 0
        inWeight: 0.33333334
        outWeight: 0.33333334
      - serializedVersion: 3
        time: 5.5833335
        value: 0.1565212
        inSlope: -7.362543
        outSlope: -7.362543
        tangentMode: 0
        weightedMode: 0
        inWeight: 0.33333334
        outWeight: 0.33333334
      - serializedVersion: 3
        time: 5.625
        value: 0
        inSlope: 3.7282252
        outSlope: 3.7282252
        tangentMode: 0
        weightedMode: 0
        inWeight: 0.33333334
        outWeight: 0.33333334
      - serializedVersion: 3
        time: 5.666667
        value: 0.4672108
        inSlope: 21.811337
        outSlope: 21.811337
        tangentMode: 0
        weightedMode: 0
        inWeight: 0.33333334
        outWeight: 0.33333334
      - serializedVersion: 3
        time: 5.9583335
        value: 24.16643
        inSlope: 125.0304
        outSlope: 125.0304
        tangentMode: 0
        weightedMode: 0
        inWeight: 0.33333334
        outWeight: 0.33333334
      - serializedVersion: 3
        time: 6.625
        value: 99.53282
        inSlope: 21.811085
        outSlope: 21.811085
        tangentMode: 0
        weightedMode: 0
        inWeight: 0.33333334
        outWeight: 0.33333334
      - serializedVersion: 3
        time: 6.916667
        value: 96.47681
        inSlope: -29.627888
        outSlope: -29.627888
        tangentMode: 0
        weightedMode: 0
        inWeight: 0.33333334
        outWeight: 0.33333334
      - serializedVersion: 3
        time: 7.7083335
        value: 48.980125
        inSlope: -59.90863
        outSlope: -59.90863
        tangentMode: 0
        weightedMode: 0
        inWeight: 0.33333334
        outWeight: 0.33333334
      - serializedVersion: 3
        time: 8.458334
        value: 17.155333
        inSlope: -27.740303
        outSlope: -27.740303
        tangentMode: 0
        weightedMode: 0
        inWeight: 0.33333334
        outWeight: 0.33333334
      - serializedVersion: 3
        time: 8.5
        value: 16.02667
        inSlope: -35.22942
        outSlope: -35.22942
        tangentMode: 0
        weightedMode: 0
        inWeight: 0.33333334
        outWeight: 0.33333334
      - serializedVersion: 3
        time: 8.541667
        value: 14.219551
        inSlope: -43.216232
        outSlope: -43.216232
        tangentMode: 0
        weightedMode: 0
        inWeight: 0.33333334
        outWeight: 0.33333334
      - serializedVersion: 3
        time: 8.833334
        value: 3.8888898
        inSlope: -25.498127
        outSlope: -25.498127
        tangentMode: 0
        weightedMode: 0
        inWeight: 0.33333334
        outWeight: 0.33333334
      - serializedVersion: 3
        time: 9.083334
        value: 0.0852095
        inSlope: -4.043167
        outSlope: -4.043167
        tangentMode: 0
        weightedMode: 0
        inWeight: 0.33333334
        outWeight: 0.33333334
      - serializedVersion: 3
        time: 9.125
        value: 0
        inSlope: -1.0225296
        outSlope: -1.0225296
        tangentMode: 0
        weightedMode: 0
        inWeight: 0.33333334
        outWeight: 0.33333334
      - serializedVersion: 3
        time: 9.166667
        value: 0
        inSlope: 0
        outSlope: 0
        tangentMode: 0
        weightedMode: 0
        inWeight: 0.33333334
        outWeight: 0.33333334
      - serializedVersion: 3
        time: 9.958334
        value: 0
        inSlope: 0
        outSlope: 0
        tangentMode: 0
        weightedMode: 0
        inWeight: 0.33333334
        outWeight: 0.33333334
      m_PreInfinity: 2
      m_PostInfinity: 2
      m_RotationOrder: 4
    attribute: blendShape.demon_hair_key_3
    path: hair_9
    classID: 137
    script: {fileID: 0}
  - curve:
      serializedVersion: 2
      m_Curve:
      - serializedVersion: 3
        time: 0
        value: 0
        inSlope: 0
        outSlope: 0
        tangentMode: 0
        weightedMode: 0
        inWeight: 0.33333334
        outWeight: 0.33333334
      - serializedVersion: 3
        time: 0.75
        value: 0
        inSlope: 0.00000015529679
        outSlope: 0.00000015529679
        tangentMode: 0
        weightedMode: 0
        inWeight: 0.33333334
        outWeight: 0.33333334
      - serializedVersion: 3
        time: 0.7916667
        value: 0.000000012941405
        inSlope: 0.3259081
        outSlope: 0.3259081
        tangentMode: 0
        weightedMode: 0
        inWeight: 0.33333334
        outWeight: 0.33333334
      - serializedVersion: 3
        time: 0.8333334
        value: 0.02715902
        inSlope: 1.4163257
        outSlope: 1.4163257
        tangentMode: 0
        weightedMode: 0
        inWeight: 0.33333334
        outWeight: 0.33333334
      - serializedVersion: 3
        time: 0.875
        value: 0.11802708
        inSlope: 3.1542468
        outSlope: 3.1542468
        tangentMode: 0
        weightedMode: 0
        inWeight: 0.33333334
        outWeight: 0.33333334
      - serializedVersion: 3
        time: 0.9583334
        value: 0.5660519
        inSlope: 8.231773
        outSlope: 8.231773
        tangentMode: 0
        weightedMode: 0
        inWeight: 0.33333334
        outWeight: 0.33333334
      - serializedVersion: 3
        time: 1.125
        value: 3.405552
        inSlope: 28.617195
        outSlope: 28.617195
        tangentMode: 0
        weightedMode: 0
        inWeight: 0.33333334
        outWeight: 0.33333334
      - serializedVersion: 3
        time: 1.4166667
        value: 16.142927
        inSlope: 47.45557
        outSlope: 47.45557
        tangentMode: 0
        weightedMode: 0
        inWeight: 0.33333334
        outWeight: 0.33333334
      - serializedVersion: 3
        time: 1.5416667
        value: 21.856186
        inSlope: 43.822197
        outSlope: 43.822197
        tangentMode: 0
        weightedMode: 0
        inWeight: 0.33333334
        outWeight: 0.33333334
      - serializedVersion: 3
        time: 1.625
        value: 25.883425
        inSlope: 62.175293
        outSlope: 62.175293
        tangentMode: 0
        weightedMode: 0
        inWeight: 0.33333334
        outWeight: 0.33333334
      - serializedVersion: 3
        time: 1.9166667
        value: 53.901596
        inSlope: 111.70243
        outSlope: 111.70243
        tangentMode: 0
        weightedMode: 0
        inWeight: 0.33333334
        outWeight: 0.33333334
      - serializedVersion: 3
        time: 2.375
        value: 97.76598
        inSlope: 47.86027
        outSlope: 47.86027
        tangentMode: 0
        weightedMode: 0
        inWeight: 0.33333334
        outWeight: 0.33333334
      - serializedVersion: 3
        time: 2.5
        value: 98.21207
        inSlope: -59.244972
        outSlope: -59.244972
        tangentMode: 0
        weightedMode: 0
        inWeight: 0.33333334
        outWeight: 0.33333334
      - serializedVersion: 3
        time: 2.7083335
        value: 79.072975
        inSlope: -103.25529
        outSlope: -103.25529
        tangentMode: 0
        weightedMode: 0
        inWeight: 0.33333334
        outWeight: 0.33333334
      - serializedVersion: 3
        time: 3.2916667
        value: 16.670834
        inSlope: -100.61708
        outSlope: -100.61708
        tangentMode: 0
        weightedMode: 0
        inWeight: 0.33333334
        outWeight: 0.33333334
      - serializedVersion: 3
        time: 3.4166667
        value: 4.9370823
        inSlope: -81.71231
        outSlope: -81.71231
        tangentMode: 0
        weightedMode: 0
        inWeight: 0.33333334
        outWeight: 0.33333334
      - serializedVersion: 3
        time: 3.4583335
        value: 1.7879299
        inSlope: -59.244995
        outSlope: -59.244995
        tangentMode: 0
        weightedMode: 0
        inWeight: 0.33333334
        outWeight: 0.33333334
      - serializedVersion: 3
        time: 3.5
        value: 0
        inSlope: -19.064426
        outSlope: -19.064426
        tangentMode: 0
        weightedMode: 0
        inWeight: 0.33333334
        outWeight: 0.33333334
      - serializedVersion: 3
        time: 3.5416667
        value: 0.19923495
        inSlope: 10.173397
        outSlope: 10.173397
        tangentMode: 0
        weightedMode: 0
        inWeight: 0.33333334
        outWeight: 0.33333334
      - serializedVersion: 3
        time: 3.625
        value: 2.0330703
        inSlope: 36.08473
        outSlope: 36.08473
        tangentMode: 0
        weightedMode: 0
        inWeight: 0.33333334
        outWeight: 0.33333334
      - serializedVersion: 3
        time: 3.75
        value: 9.779159
        inSlope: 90.297455
        outSlope: 90.297455
        tangentMode: 0
        weightedMode: 0
        inWeight: 0.33333334
        outWeight: 0.33333334
      - serializedVersion: 3
        time: 3.9583335
        value: 33.743473
        inSlope: 109.403915
        outSlope: 109.403915
        tangentMode: 0
        weightedMode: 0
        inWeight: 0.33333334
        outWeight: 0.33333334
      - serializedVersion: 3
        time: 4.4583335
        value: 61.634724
        inSlope: 25.707603
        outSlope: 25.707603
        tangentMode: 0
        weightedMode: 0
        inWeight: 0.33333334
        outWeight: 0.33333334
      - serializedVersion: 3
        time: 4.916667
        value: 67.65543
        inSlope: 2.0759544
        outSlope: 2.0759544
        tangentMode: 0
        weightedMode: 0
        inWeight: 0.33333334
        outWeight: 0.33333334
      - serializedVersion: 3
        time: 5
        value: 66.288765
        inSlope: -55.257896
        outSlope: -55.257896
        tangentMode: 0
        weightedMode: 0
        inWeight: 0.33333334
        outWeight: 0.33333334
      - serializedVersion: 3
        time: 5.166667
        value: 49.620213
        inSlope: -120.63168
        outSlope: -120.63168
        tangentMode: 0
        weightedMode: 0
        inWeight: 0.33333334
        outWeight: 0.33333334
      - serializedVersion: 3
        time: 5.4583335
        value: 13.207183
        inSlope: -113.80092
        outSlope: -113.80092
        tangentMode: 0
        weightedMode: 0
        inWeight: 0.33333334
        outWeight: 0.33333334
      - serializedVersion: 3
        time: 5.541667
        value: 4.6047926
        inSlope: -86.22107
        outSlope: -86.22107
        tangentMode: 0
        weightedMode: 0
        inWeight: 0.33333334
        outWeight: 0.33333334
      - serializedVersion: 3
        time: 5.5833335
        value: 1.4531676
        inSlope: -55.25772
        outSlope: -55.25772
        tangentMode: 0
        weightedMode: 0
        inWeight: 0.33333334
        outWeight: 0.33333334
      - serializedVersion: 3
        time: 5.625
        value: 0
        inSlope: -17.438078
        outSlope: -17.438078
        tangentMode: 0
        weightedMode: 0
        inWeight: 0.33333334
        outWeight: 0.33333334
      - serializedVersion: 3
        time: 5.666667
        value: 0
        inSlope: 0
        outSlope: 0
        tangentMode: 0
        weightedMode: 0
        inWeight: 0.33333334
        outWeight: 0.33333334
      - serializedVersion: 3
        time: 6.125
        value: 0
        inSlope: 0
        outSlope: 0
        tangentMode: 0
        weightedMode: 0
        inWeight: 0.33333334
        outWeight: 0.33333334
      - serializedVersion: 3
        time: 6.166667
        value: 0
        inSlope: 0.000009410156
        outSlope: 0.000009410156
        tangentMode: 0
        weightedMode: 0
        inWeight: 0.33333334
        outWeight: 0.33333334
      - serializedVersion: 3
        time: 6.2083335
        value: 0.0000007841767
        inSlope: 2.4668467
        outSlope: 2.4668467
        tangentMode: 0
        weightedMode: 0
        inWeight: 0.33333334
        outWeight: 0.33333334
      - serializedVersion: 3
        time: 6.25
        value: 0.20556979
        inSlope: 11.6003475
        outSlope: 11.6003475
        tangentMode: 0
        weightedMode: 0
        inWeight: 0.33333334
        outWeight: 0.33333334
      - serializedVersion: 3
        time: 6.291667
        value: 0.96670145
        inSlope: 28.73523
        outSlope: 28.73523
        tangentMode: 0
        weightedMode: 0
        inWeight: 0.33333334
        outWeight: 0.33333334
      - serializedVersion: 3
        time: 6.3333335
        value: 2.6001718
        inSlope: 55.180473
        outSlope: 55.180473
        tangentMode: 0
        weightedMode: 0
        inWeight: 0.33333334
        outWeight: 0.33333334
      - serializedVersion: 3
        time: 6.375
        value: 5.565057
        inSlope: 91.745186
        outSlope: 91.745186
        tangentMode: 0
        weightedMode: 0
        inWeight: 0.33333334
        outWeight: 0.33333334
      - serializedVersion: 3
        time: 6.416667
        value: 10.245628
        inSlope: 129.82982
        outSlope: 129.82982
        tangentMode: 0
        weightedMode: 0
        inWeight: 0.33333334
        outWeight: 0.33333334
      - serializedVersion: 3
        time: 6.5
        value: 23.1097
        inSlope: 160.31863
        outSlope: 160.31863
        tangentMode: 0
        weightedMode: 0
        inWeight: 0.33333334
        outWeight: 0.33333334
      - serializedVersion: 3
        time: 6.666667
        value: 46.974262
        inSlope: 111.59968
        outSlope: 111.59968
        tangentMode: 0
        weightedMode: 0
        inWeight: 0.33333334
        outWeight: 0.33333334
      - serializedVersion: 3
        time: 6.916667
        value: 68.24266
        inSlope: 71.688484
        outSlope: 71.688484
        tangentMode: 0
        weightedMode: 0
        inWeight: 0.33333334
        outWeight: 0.33333334
      - serializedVersion: 3
        time: 7.375
        value: 93.92115
        inSlope: 33.37313
        outSlope: 33.37313
        tangentMode: 0
        weightedMode: 0
        inWeight: 0.33333334
        outWeight: 0.33333334
      - serializedVersion: 3
        time: 7.5
        value: 93.38242
        inSlope: -93.71564
        outSlope: -93.71564
        tangentMode: 0
        weightedMode: 0
        inWeight: 0.33333334
        outWeight: 0.33333334
      - serializedVersion: 3
        time: 7.666667
        value: 62.55104
        inSlope: -229.22873
        outSlope: -229.22873
        tangentMode: 0
        weightedMode: 0
        inWeight: 0.33333334
        outWeight: 0.33333334
      - serializedVersion: 3
        time: 7.875
        value: 15.205079
        inSlope: -191.91504
        outSlope: -191.91504
        tangentMode: 0
        weightedMode: 0
        inWeight: 0.33333334
        outWeight: 0.33333334
      - serializedVersion: 3
        time: 7.916667
        value: 7.8095374
        inSlope: -154.66293
        outSlope: -154.66293
        tangentMode: 0
        weightedMode: 0
        inWeight: 0.33333334
        outWeight: 0.33333334
      - serializedVersion: 3
        time: 7.9583335
        value: 2.316466
        inSlope: -93.714806
        outSlope: -93.714806
        tangentMode: 0
        weightedMode: 0
        inWeight: 0.33333334
        outWeight: 0.33333334
      - serializedVersion: 3
        time: 8
        value: 0
        inSlope: -27.797699
        outSlope: -27.797699
        tangentMode: 0
        weightedMode: 0
        inWeight: 0.33333334
        outWeight: 0.33333334
      - serializedVersion: 3
        time: 8.041667
        value: 0
        inSlope: 0
        outSlope: 0
        tangentMode: 0
        weightedMode: 0
        inWeight: 0.33333334
        outWeight: 0.33333334
      - serializedVersion: 3
        time: 9.083334
        value: 0
        inSlope: 0
        outSlope: 0
        tangentMode: 0
        weightedMode: 0
        inWeight: 0.33333334
        outWeight: 0.33333334
      - serializedVersion: 3
        time: 9.125
        value: 0
        inSlope: 14.127996
        outSlope: 14.127996
        tangentMode: 0
        weightedMode: 0
        inWeight: 0.33333334
        outWeight: 0.33333334
      - serializedVersion: 3
        time: 9.166667
        value: 1.177342
        inSlope: 49.75093
        outSlope: 49.75093
        tangentMode: 0
        weightedMode: 0
        inWeight: 0.33333334
        outWeight: 0.33333334
      - serializedVersion: 3
        time: 9.208334
        value: 4.145942
        inSlope: 85.18979
        outSlope: 85.18979
        tangentMode: 0
        weightedMode: 0
        inWeight: 0.33333334
        outWeight: 0.33333334
      - serializedVersion: 3
        time: 9.333334
        value: 18.279648
        inSlope: 124.03952
        outSlope: 124.03952
        tangentMode: 0
        weightedMode: 0
        inWeight: 0.33333334
        outWeight: 0.33333334
      - serializedVersion: 3
        time: 9.5
        value: 35.381824
        inSlope: 49.750328
        outSlope: 49.750328
        tangentMode: 0
        weightedMode: 0
        inWeight: 0.33333334
        outWeight: 0.33333334
      - serializedVersion: 3
        time: 9.583334
        value: 35.381775
        inSlope: -49.750877
        outSlope: -49.750877
        tangentMode: 0
        weightedMode: 0
        inWeight: 0.33333334
        outWeight: 0.33333334
      - serializedVersion: 3
        time: 9.75
        value: 18.27957
        inSlope: -124.03949
        outSlope: -124.03949
        tangentMode: 0
        weightedMode: 0
        inWeight: 0.33333334
        outWeight: 0.33333334
      - serializedVersion: 3
        time: 9.875
        value: 4.145879
        inSlope: -85.18945
        outSlope: -85.18945
        tangentMode: 0
        weightedMode: 0
        inWeight: 0.33333334
        outWeight: 0.33333334
      - serializedVersion: 3
        time: 9.916667
        value: 1.177308
        inSlope: -49.750164
        outSlope: -49.750164
        tangentMode: 0
        weightedMode: 0
        inWeight: 0.33333334
        outWeight: 0.33333334
      - serializedVersion: 3
        time: 9.958334
        value: 0
        inSlope: -28.255175
        outSlope: -28.255175
        tangentMode: 0
        weightedMode: 0
        inWeight: 0.33333334
        outWeight: 0.33333334
      m_PreInfinity: 2
      m_PostInfinity: 2
      m_RotationOrder: 4
    attribute: blendShape.demon_hair_key_4
    path: hair_9
    classID: 137
    script: {fileID: 0}
  m_EulerEditorCurves: []
  m_HasGenericRootTransform: 0
  m_HasMotionFloatCurves: 0
  m_Events: []
