%YAML 1.1
%TAG !u! tag:unity3d.com,2011:
--- !u!114 &11400000
MonoBehaviour:
  m_ObjectHideFlags: 0
  m_CorrespondingSourceObject: {fileID: 0}
  m_PrefabInstance: {fileID: 0}
  m_PrefabAsset: {fileID: 0}
  m_GameObject: {fileID: 0}
  m_Enabled: 1
  m_EditorHideFlags: 0
  m_Script: {fileID: 11500000, guid: 2f0b0c553be8edd4682e9180fdd13e37, type: 3}
  m_Name: Additional
  m_EditorClassIdentifier: 
  mSource:
    UserAgreesToHaveItOnTheScene: 0
    UserAgreesToHaveItInsideThePluginsFolder: 0
    GoogleLiveSyncIsUptoDate: 1
    mTerms:
    - Term: LanguageIcon
      TermType: 5
      Description: 
      Languages:
      - 
      Flags: 00
      Languages_Touch: []
    CaseInsensitiveTerms: 0
    OnMissingTranslation: 1
    mTerm_AppName: 
    mLanguages:
    - Name: English
      Code: en
      Flags: 0
    IgnoreDeviceLanguage: 0
    _AllowUnloadingLanguages: 0
    Google_WebServiceURL: 
    Google_SpreadsheetKey: 
    Google_SpreadsheetName: 
    Google_LastUpdatedVersion: 
    Google_Password: change_this
    GoogleUpdateFrequency: 3
    GoogleInEditorCheckFrequency: 2
    GoogleUpdateSynchronization: 1
    GoogleUpdateDelay: 0
    Assets: []
    Spreadsheet_LocalFileName: 
    Spreadsheet_LocalCSVSeparator: ','
    Spreadsheet_LocalCSVEncoding: utf-8
    Spreadsheet_SpecializationAsRows: 1
