%YAML 1.1
%TAG !u! tag:unity3d.com,2011:
--- !u!1 &5864508148956525635
GameObject:
  m_ObjectHideFlags: 0
  m_CorrespondingSourceObject: {fileID: 0}
  m_PrefabInstance: {fileID: 0}
  m_PrefabAsset: {fileID: 0}
  serializedVersion: 6
  m_Component:
  - component: {fileID: 5864508148956525634}
  - component: {fileID: 5864508148956525633}
  m_Layer: 0
  m_Name: BarGuestMood
  m_TagString: Untagged
  m_Icon: {fileID: 0}
  m_NavMeshLayer: 0
  m_StaticEditorFlags: 0
  m_IsActive: 1
--- !u!4 &5864508148956525634
Transform:
  m_ObjectHideFlags: 0
  m_CorrespondingSourceObject: {fileID: 0}
  m_PrefabInstance: {fileID: 0}
  m_PrefabAsset: {fileID: 0}
  m_GameObject: {fileID: 5864508148956525635}
  m_LocalRotation: {x: 0, y: 0, z: 0, w: 1}
  m_LocalPosition: {x: 0, y: 0, z: 0}
  m_LocalScale: {x: 1, y: 1, z: 1}
  m_Children: []
  m_Father: {fileID: 0}
  m_RootOrder: 0
  m_LocalEulerAnglesHint: {x: 0, y: 0, z: 0}
--- !u!114 &5864508148956525633
MonoBehaviour:
  m_ObjectHideFlags: 0
  m_CorrespondingSourceObject: {fileID: 0}
  m_PrefabInstance: {fileID: 0}
  m_PrefabAsset: {fileID: 0}
  m_GameObject: {fileID: 5864508148956525635}
  m_Enabled: 1
  m_EditorHideFlags: 0
  m_Script: {fileID: 11500000, guid: fbb965a6f92b19142a13fb0d0c424643, type: 3}
  m_Name: 
  m_EditorClassIdentifier: 
  description: Guest
  speed: 0.025
  level: 1
  inverted: 0
  critical: 1
  icon: {fileID: 21300000, guid: e2a0bfd6ab4870d48a70f463c34bb161, type: 3}
  instantSet: 0
  anim: {fileID: 0}
  scaleFrom: 0.5
  targetLevel: 0
  sprites0:
  - {fileID: -7307796843162561231, guid: bcd75e6aa95200a4a928ed21d4a57f19, type: 3}
  - {fileID: -4393325418062327427, guid: bcd75e6aa95200a4a928ed21d4a57f19, type: 3}
  sprites1:
  - {fileID: -182321036882161424, guid: 38dbabe9fd320bc4f9872dc515a9f246, type: 3}
  - {fileID: -847779932259754903, guid: 38dbabe9fd320bc4f9872dc515a9f246, type: 3}
  sprites2:
  - {fileID: -4159222020340387008, guid: 6f2ece9953f90aa448a4c7060759dc51, type: 3}
  - {fileID: -2633379728681299080, guid: 6f2ece9953f90aa448a4c7060759dc51, type: 3}
