%YAML 1.1
%TAG !u! tag:unity3d.com,2011:
--- !u!1 &9170688048482920340
GameObject:
  m_ObjectHideFlags: 0
  m_CorrespondingSourceObject: {fileID: 0}
  m_PrefabInstance: {fileID: 0}
  m_PrefabAsset: {fileID: 0}
  serializedVersion: 6
  m_Component:
  - component: {fileID: 1498853122502671724}
  - component: {fileID: 1764580001347902133}
  - component: {fileID: -8048418436080607105}
  - component: {fileID: 2486289922528507898}
  m_Layer: 0
  m_Name: Pirate
  m_TagString: Untagged
  m_Icon: {fileID: 0}
  m_NavMeshLayer: 0
  m_StaticEditorFlags: 0
  m_IsActive: 1
--- !u!4 &1498853122502671724
Transform:
  m_ObjectHideFlags: 0
  m_CorrespondingSourceObject: {fileID: 0}
  m_PrefabInstance: {fileID: 0}
  m_PrefabAsset: {fileID: 0}
  m_GameObject: {fileID: 9170688048482920340}
  m_LocalRotation: {x: 0, y: 0, z: 0, w: 1}
  m_LocalPosition: {x: 0, y: 0, z: 0}
  m_LocalScale: {x: 1, y: 1, z: 1}
  m_Children: []
  m_Father: {fileID: 0}
  m_RootOrder: 0
  m_LocalEulerAnglesHint: {x: 0, y: 0, z: 0}
--- !u!114 &1764580001347902133
MonoBehaviour:
  m_ObjectHideFlags: 0
  m_CorrespondingSourceObject: {fileID: 0}
  m_PrefabInstance: {fileID: 0}
  m_PrefabAsset: {fileID: 0}
  m_GameObject: {fileID: 9170688048482920340}
  m_Enabled: 1
  m_EditorHideFlags: 0
  m_Script: {fileID: 11500000, guid: d92eeace919c4f545acbd6858b62b884, type: 3}
  m_Name: 
  m_EditorClassIdentifier: 
  itemName: Eyes
  image: {fileID: 21300000, guid: 6a075e280c504d14c908dfe37b023bf4, type: 3}
  onApply:
    m_PersistentCalls:
      m_Calls:
      - m_Target: {fileID: -8048418436080607105}
        m_MethodName: Apply
        m_Mode: 1
        m_Arguments:
          m_ObjectArgument: {fileID: 0}
          m_ObjectArgumentAssemblyTypeName: UnityEngine.Object, UnityEngine
          m_IntArgument: 0
          m_FloatArgument: 0
          m_StringArgument: 
          m_BoolArgument: 0
        m_CallState: 2
  onTryToBuy:
    m_PersistentCalls:
      m_Calls:
      - m_Target: {fileID: 2486289922528507898}
        m_MethodName: Open
        m_Mode: 1
        m_Arguments:
          m_ObjectArgument: {fileID: 0}
          m_ObjectArgumentAssemblyTypeName: UnityEngine.Object, UnityEngine
          m_IntArgument: 0
          m_FloatArgument: 0
          m_StringArgument: 
          m_BoolArgument: 0
        m_CallState: 2
  rarity: 2
  priceType: 3
  priceIcon: {fileID: 0}
  price: 0
  hide: 0
  active: 0
  empty: 0
  info: storeChallengeclaim
  infoIcon: {fileID: 21300000, guid: 74110dba137c41d43874871b8e0e5c6e, type: 3}
--- !u!114 &-8048418436080607105
MonoBehaviour:
  m_ObjectHideFlags: 0
  m_CorrespondingSourceObject: {fileID: 0}
  m_PrefabInstance: {fileID: 0}
  m_PrefabAsset: {fileID: 0}
  m_GameObject: {fileID: 9170688048482920340}
  m_Enabled: 1
  m_EditorHideFlags: 0
  m_Script: {fileID: 11500000, guid: ef41222b0e2684a41a25f23757ce0934, type: 3}
  m_Name: 
  m_EditorClassIdentifier: 
  mat: {fileID: 2100000, guid: 4db2e56768884e741bc4c43b0407c671, type: 2}
--- !u!114 &2486289922528507898
MonoBehaviour:
  m_ObjectHideFlags: 0
  m_CorrespondingSourceObject: {fileID: 0}
  m_PrefabInstance: {fileID: 0}
  m_PrefabAsset: {fileID: 0}
  m_GameObject: {fileID: 9170688048482920340}
  m_Enabled: 1
  m_EditorHideFlags: 0
  m_Script: {fileID: 11500000, guid: f1eaf6884ff9d414ba065fa7fea4cef9, type: 3}
  m_Name: 
  m_EditorClassIdentifier: 
