%YAML 1.1
%TAG !u! tag:unity3d.com,2011:
--- !u!1 &9170688048482920340
GameObject:
  m_ObjectHideFlags: 0
  m_CorrespondingSourceObject: {fileID: 0}
  m_PrefabInstance: {fileID: 0}
  m_PrefabAsset: {fileID: 0}
  serializedVersion: 6
  m_Component:
  - component: {fileID: 1498853122502671724}
  - component: {fileID: 1764580001347902133}
  - component: {fileID: -1060662872443395905}
  m_Layer: 0
  m_Name: Rings2
  m_TagString: Untagged
  m_Icon: {fileID: 0}
  m_NavMeshLayer: 0
  m_StaticEditorFlags: 0
  m_IsActive: 1
--- !u!4 &1498853122502671724
Transform:
  m_ObjectHideFlags: 0
  m_CorrespondingSourceObject: {fileID: 0}
  m_PrefabInstance: {fileID: 0}
  m_PrefabAsset: {fileID: 0}
  m_GameObject: {fileID: 9170688048482920340}
  m_LocalRotation: {x: 0, y: 0, z: 0, w: 1}
  m_LocalPosition: {x: 0, y: 0, z: 0}
  m_LocalScale: {x: 1, y: 1, z: 1}
  m_Children: []
  m_Father: {fileID: 0}
  m_RootOrder: 0
  m_LocalEulerAnglesHint: {x: 0, y: 0, z: 0}
--- !u!114 &1764580001347902133
MonoBehaviour:
  m_ObjectHideFlags: 0
  m_CorrespondingSourceObject: {fileID: 0}
  m_PrefabInstance: {fileID: 0}
  m_PrefabAsset: {fileID: 0}
  m_GameObject: {fileID: 9170688048482920340}
  m_Enabled: 1
  m_EditorHideFlags: 0
  m_Script: {fileID: 11500000, guid: d92eeace919c4f545acbd6858b62b884, type: 3}
  m_Name: 
  m_EditorClassIdentifier: 
  itemName: Rings
  image: {fileID: 21300000, guid: 6c607ca7f18f56f4b8c8cdf2ad10a11c, type: 3}
  onApply:
    m_PersistentCalls:
      m_Calls:
      - m_Target: {fileID: -1060662872443395905}
        m_MethodName: Apply
        m_Mode: 1
        m_Arguments:
          m_ObjectArgument: {fileID: 0}
          m_ObjectArgumentAssemblyTypeName: UnityEngine.Object, UnityEngine
          m_IntArgument: 0
          m_FloatArgument: 0
          m_StringArgument: 
          m_BoolArgument: 0
        m_CallState: 2
  onTryToBuy:
    m_PersistentCalls:
      m_Calls: []
  rarity: 3
  priceType: 3
  priceIcon: {fileID: 0}
  price: 1
  hide: 1
  active: 0
  empty: 0
  info: shoppageGifts
  infoIcon: {fileID: 21300000, guid: 1c40a91e8879cee4d92a9384ee3a451e, type: 3}
--- !u!114 &-1060662872443395905
MonoBehaviour:
  m_ObjectHideFlags: 0
  m_CorrespondingSourceObject: {fileID: 0}
  m_PrefabInstance: {fileID: 0}
  m_PrefabAsset: {fileID: 0}
  m_GameObject: {fileID: 9170688048482920340}
  m_Enabled: 1
  m_EditorHideFlags: 0
  m_Script: {fileID: 11500000, guid: d1833b8bbd039bd4185f638fa39db4d2, type: 3}
  m_Name: 
  m_EditorClassIdentifier: 
  ring1: {fileID: 1547829050257304689, guid: 431c44f88b2811449ac8a6e4f11e4c59, type: 3}
  ring2: {fileID: 2829189896770933792, guid: 0b47808ff72b5e2409d07ebc066c2ec3, type: 3}
