%YAML 1.1
%TAG !u! tag:unity3d.com,2011:
--- !u!1 &9170688048482920340
GameObject:
  m_ObjectHideFlags: 0
  m_CorrespondingSourceObject: {fileID: 0}
  m_PrefabInstance: {fileID: 0}
  m_PrefabAsset: {fileID: 0}
  serializedVersion: 6
  m_Component:
  - component: {fileID: 1498853122502671724}
  - component: {fileID: 1764580001347902133}
  - component: {fileID: -5050720572854268235}
  m_Layer: 0
  m_Name: Skin8
  m_TagString: Untagged
  m_Icon: {fileID: 0}
  m_NavMeshLayer: 0
  m_StaticEditorFlags: 0
  m_IsActive: 1
--- !u!4 &1498853122502671724
Transform:
  m_ObjectHideFlags: 0
  m_CorrespondingSourceObject: {fileID: 0}
  m_PrefabInstance: {fileID: 0}
  m_PrefabAsset: {fileID: 0}
  m_GameObject: {fileID: 9170688048482920340}
  m_LocalRotation: {x: 0, y: 0, z: 0, w: 1}
  m_LocalPosition: {x: 0, y: 0, z: 0}
  m_LocalScale: {x: 1, y: 1, z: 1}
  m_Children: []
  m_Father: {fileID: 0}
  m_RootOrder: 0
  m_LocalEulerAnglesHint: {x: 0, y: 0, z: 0}
--- !u!114 &1764580001347902133
MonoBehaviour:
  m_ObjectHideFlags: 0
  m_CorrespondingSourceObject: {fileID: 0}
  m_PrefabInstance: {fileID: 0}
  m_PrefabAsset: {fileID: 0}
  m_GameObject: {fileID: 9170688048482920340}
  m_Enabled: 1
  m_EditorHideFlags: 0
  m_Script: {fileID: 11500000, guid: d92eeace919c4f545acbd6858b62b884, type: 3}
  m_Name: 
  m_EditorClassIdentifier: 
  itemName: Skin
  image: {fileID: 21300000, guid: f06e4764fc8db5b49a0d6d788cf15703, type: 3}
  onApply:
    m_PersistentCalls:
      m_Calls:
      - m_Target: {fileID: -5050720572854268235}
        m_MethodName: Apply
        m_Mode: 1
        m_Arguments:
          m_ObjectArgument: {fileID: 0}
          m_ObjectArgumentAssemblyTypeName: UnityEngine.Object, UnityEngine
          m_IntArgument: 0
          m_FloatArgument: 0
          m_StringArgument: 
          m_BoolArgument: 0
        m_CallState: 2
  onTryToBuy:
    m_PersistentCalls:
      m_Calls: []
  rarity: 0
  priceType: 0
  priceIcon: {fileID: 0}
  price: 200
  hide: 1
  active: 0
  empty: 0
  info: 
  infoIcon: {fileID: 0}
--- !u!114 &-5050720572854268235
MonoBehaviour:
  m_ObjectHideFlags: 0
  m_CorrespondingSourceObject: {fileID: 0}
  m_PrefabInstance: {fileID: 0}
  m_PrefabAsset: {fileID: 0}
  m_GameObject: {fileID: 9170688048482920340}
  m_Enabled: 1
  m_EditorHideFlags: 0
  m_Script: {fileID: 11500000, guid: 96677db02a7548f47b8e162faa5562ee, type: 3}
  m_Name: 
  m_EditorClassIdentifier: 
  mat: {fileID: 2100000, guid: 246b2c293f6b2534c9d224648cd81a6e, type: 2}
