%YAML 1.1
%TAG !u! tag:unity3d.com,2011:
--- !u!74 &7400000
AnimationClip:
  m_ObjectHideFlags: 0
  m_CorrespondingSourceObject: {fileID: 0}
  m_PrefabInstance: {fileID: 0}
  m_PrefabAsset: {fileID: 0}
  m_Name: MarkerCenterToSide
  serializedVersion: 6
  m_Legacy: 0
  m_Compressed: 0
  m_UseHighQualityCurve: 1
  m_RotationCurves: []
  m_CompressedRotationCurves: []
  m_EulerCurves: []
  m_PositionCurves: []
  m_ScaleCurves: []
  m_FloatCurves: []
  m_PPtrCurves:
  - curve:
    - time: 0
      value: {fileID: 7700021038075671656, guid: 3d223982c023b35468d29674c128dbc9,
        type: 3}
    - time: 0.0625
      value: {fileID: 7636731611966742254, guid: 3d223982c023b35468d29674c128dbc9,
        type: 3}
    - time: 0.125
      value: {fileID: 130032645552792775, guid: 3d223982c023b35468d29674c128dbc9,
        type: 3}
    - time: 0.1875
      value: {fileID: -5919423387889358407, guid: 3d223982c023b35468d29674c128dbc9,
        type: 3}
    - time: 0.25
      value: {fileID: 5644697863623814827, guid: 3d223982c023b35468d29674c128dbc9,
        type: 3}
    - time: 0.3125
      value: {fileID: -328484238873048228, guid: 3d223982c023b35468d29674c128dbc9,
        type: 3}
    - time: 0.375
      value: {fileID: 5907116835724121494, guid: 3d223982c023b35468d29674c128dbc9,
        type: 3}
    - time: 0.4375
      value: {fileID: -8719480582593783439, guid: 3d223982c023b35468d29674c128dbc9,
        type: 3}
    attribute: m_Sprite
    path: 
    classID: 114
    script: {fileID: 11500000, guid: fe87c0e1cc204ed48ad3b37840f39efc, type: 3}
  m_SampleRate: 80
  m_WrapMode: 0
  m_Bounds:
    m_Center: {x: 0, y: 0, z: 0}
    m_Extent: {x: 0, y: 0, z: 0}
  m_ClipBindingConstant:
    genericBindings:
    - serializedVersion: 2
      path: 0
      attribute: 2015549526
      script: {fileID: 11500000, guid: fe87c0e1cc204ed48ad3b37840f39efc, type: 3}
      typeID: 114
      customType: 0
      isPPtrCurve: 1
    pptrCurveMapping:
    - {fileID: 7700021038075671656, guid: 3d223982c023b35468d29674c128dbc9, type: 3}
    - {fileID: 7636731611966742254, guid: 3d223982c023b35468d29674c128dbc9, type: 3}
    - {fileID: 130032645552792775, guid: 3d223982c023b35468d29674c128dbc9, type: 3}
    - {fileID: -5919423387889358407, guid: 3d223982c023b35468d29674c128dbc9, type: 3}
    - {fileID: 5644697863623814827, guid: 3d223982c023b35468d29674c128dbc9, type: 3}
    - {fileID: -328484238873048228, guid: 3d223982c023b35468d29674c128dbc9, type: 3}
    - {fileID: 5907116835724121494, guid: 3d223982c023b35468d29674c128dbc9, type: 3}
    - {fileID: -8719480582593783439, guid: 3d223982c023b35468d29674c128dbc9, type: 3}
  m_AnimationClipSettings:
    serializedVersion: 2
    m_AdditiveReferencePoseClip: {fileID: 0}
    m_AdditiveReferencePoseTime: 0
    m_StartTime: 0
    m_StopTime: 0.45
    m_OrientationOffsetY: 0
    m_Level: 0
    m_CycleOffset: 0
    m_HasAdditiveReferencePose: 0
    m_LoopTime: 1
    m_LoopBlend: 0
    m_LoopBlendOrientation: 0
    m_LoopBlendPositionY: 0
    m_LoopBlendPositionXZ: 0
    m_KeepOriginalOrientation: 0
    m_KeepOriginalPositionY: 1
    m_KeepOriginalPositionXZ: 0
    m_HeightFromFeet: 0
    m_Mirror: 0
  m_EditorCurves: []
  m_EulerEditorCurves: []
  m_HasGenericRootTransform: 0
  m_HasMotionFloatCurves: 0
  m_Events: []
