%YAML 1.1
%TAG !u! tag:unity3d.com,2011:
--- !u!1 &7094146136090432375
GameObject:
  m_ObjectHideFlags: 0
  m_CorrespondingSourceObject: {fileID: 0}
  m_PrefabInstance: {fileID: 0}
  m_PrefabAsset: {fileID: 0}
  serializedVersion: 6
  m_Component:
  - component: {fileID: 7094146136090690743}
  - component: {fileID: 7094146136089342607}
  - component: {fileID: 7094146136088252373}
  - component: {fileID: 7094146136084164873}
  - component: {fileID: 7180723047673368852}
  - component: {fileID: 7180723047673368855}
  - component: {fileID: 7180723047673368853}
  - component: {fileID: 7180723047673368854}
  - component: {fileID: 7094146137847505295}
  - component: {fileID: 7094146137847505294}
  m_Layer: 10
  m_Name: Vacuum
  m_TagString: Untagged
  m_Icon: {fileID: 0}
  m_NavMeshLayer: 0
  m_StaticEditorFlags: 0
  m_IsActive: 1
--- !u!4 &7094146136090690743
Transform:
  m_ObjectHideFlags: 0
  m_CorrespondingSourceObject: {fileID: 0}
  m_PrefabInstance: {fileID: 0}
  m_PrefabAsset: {fileID: 0}
  m_GameObject: {fileID: 7094146136090432375}
  m_LocalRotation: {x: -0, y: -0.7010836, z: 0, w: -0.71307915}
  m_LocalPosition: {x: 1.554, y: 0, z: 11.8}
  m_LocalScale: {x: 1, y: 1, z: 1}
  m_Children:
  - {fileID: 7094146137871157494}
  m_Father: {fileID: 0}
  m_RootOrder: 0
  m_LocalEulerAnglesHint: {x: 0, y: -270.972, z: 0}
--- !u!33 &7094146136089342607
MeshFilter:
  m_ObjectHideFlags: 0
  m_CorrespondingSourceObject: {fileID: 0}
  m_PrefabInstance: {fileID: 0}
  m_PrefabAsset: {fileID: 0}
  m_GameObject: {fileID: 7094146136090432375}
  m_Mesh: {fileID: 4300000, guid: 4bec85c96e58a584b954a31385417e44, type: 3}
--- !u!23 &7094146136088252373
MeshRenderer:
  m_ObjectHideFlags: 0
  m_CorrespondingSourceObject: {fileID: 0}
  m_PrefabInstance: {fileID: 0}
  m_PrefabAsset: {fileID: 0}
  m_GameObject: {fileID: 7094146136090432375}
  m_Enabled: 1
  m_CastShadows: 1
  m_ReceiveShadows: 1
  m_DynamicOccludee: 1
  m_MotionVectors: 1
  m_LightProbeUsage: 1
  m_ReflectionProbeUsage: 1
  m_RenderingLayerMask: 1
  m_RendererPriority: 0
  m_Materials:
  - {fileID: 2100000, guid: 21e4021a508ecc54a9a6e2f453f5247c, type: 2}
  m_StaticBatchInfo:
    firstSubMesh: 0
    subMeshCount: 0
  m_StaticBatchRoot: {fileID: 0}
  m_ProbeAnchor: {fileID: 0}
  m_LightProbeVolumeOverride: {fileID: 0}
  m_ScaleInLightmap: 1
  m_ReceiveGI: 1
  m_PreserveUVs: 0
  m_IgnoreNormalsForChartDetection: 0
  m_ImportantGI: 0
  m_StitchLightmapSeams: 0
  m_SelectedEditorRenderState: 3
  m_MinimumChartSize: 4
  m_AutoUVMaxDistance: 0.5
  m_AutoUVMaxAngle: 89
  m_LightmapParameters: {fileID: 0}
  m_SortingLayerID: 0
  m_SortingLayer: 0
  m_SortingOrder: 0
--- !u!64 &7094146136084164873
MeshCollider:
  m_ObjectHideFlags: 0
  m_CorrespondingSourceObject: {fileID: 0}
  m_PrefabInstance: {fileID: 0}
  m_PrefabAsset: {fileID: 0}
  m_GameObject: {fileID: 7094146136090432375}
  m_Material: {fileID: 0}
  m_IsTrigger: 0
  m_Enabled: 1
  serializedVersion: 3
  m_Convex: 0
  m_CookingOptions: 14
  m_Mesh: {fileID: 4300000, guid: 4bec85c96e58a584b954a31385417e44, type: 3}
--- !u!65 &7180723047673368852
BoxCollider:
  m_ObjectHideFlags: 0
  m_CorrespondingSourceObject: {fileID: 0}
  m_PrefabInstance: {fileID: 0}
  m_PrefabAsset: {fileID: 0}
  m_GameObject: {fileID: 7094146136090432375}
  m_Material: {fileID: 0}
  m_IsTrigger: 0
  m_Enabled: 1
  serializedVersion: 2
  m_Size: {x: 0.78292423, y: 0.2, z: 0.7}
  m_Center: {x: 0, y: 0, z: 0}
--- !u!82 &7180723047673368855
AudioSource:
  m_ObjectHideFlags: 0
  m_CorrespondingSourceObject: {fileID: 0}
  m_PrefabInstance: {fileID: 0}
  m_PrefabAsset: {fileID: 0}
  m_GameObject: {fileID: 7094146136090432375}
  m_Enabled: 1
  serializedVersion: 4
  OutputAudioMixerGroup: {fileID: 0}
  m_audioClip: {fileID: 0}
  m_PlayOnAwake: 0
  m_Volume: 1
  m_Pitch: 1
  Loop: 0
  Mute: 0
  Spatialize: 0
  SpatializePostEffects: 0
  Priority: 128
  DopplerLevel: 1
  MinDistance: 1
  MaxDistance: 500
  Pan2D: 0
  rolloffMode: 0
  BypassEffects: 0
  BypassListenerEffects: 0
  BypassReverbZones: 0
  rolloffCustomCurve:
    serializedVersion: 2
    m_Curve:
    - serializedVersion: 3
      time: 0
      value: 1
      inSlope: 0
      outSlope: 0
      tangentMode: 0
      weightedMode: 0
      inWeight: 0.33333334
      outWeight: 0.33333334
    - serializedVersion: 3
      time: 1
      value: 0
      inSlope: 0
      outSlope: 0
      tangentMode: 0
      weightedMode: 0
      inWeight: 0.33333334
      outWeight: 0.33333334
    m_PreInfinity: 2
    m_PostInfinity: 2
    m_RotationOrder: 4
  panLevelCustomCurve:
    serializedVersion: 2
    m_Curve:
    - serializedVersion: 3
      time: 0
      value: 0
      inSlope: 0
      outSlope: 0
      tangentMode: 0
      weightedMode: 0
      inWeight: 0.33333334
      outWeight: 0.33333334
    m_PreInfinity: 2
    m_PostInfinity: 2
    m_RotationOrder: 4
  spreadCustomCurve:
    serializedVersion: 2
    m_Curve:
    - serializedVersion: 3
      time: 0
      value: 0
      inSlope: 0
      outSlope: 0
      tangentMode: 0
      weightedMode: 0
      inWeight: 0.33333334
      outWeight: 0.33333334
    m_PreInfinity: 2
    m_PostInfinity: 2
    m_RotationOrder: 4
  reverbZoneMixCustomCurve:
    serializedVersion: 2
    m_Curve:
    - serializedVersion: 3
      time: 0
      value: 1
      inSlope: 0
      outSlope: 0
      tangentMode: 0
      weightedMode: 0
      inWeight: 0.33333334
      outWeight: 0.33333334
    m_PreInfinity: 2
    m_PostInfinity: 2
    m_RotationOrder: 4
--- !u!114 &7180723047673368853
MonoBehaviour:
  m_ObjectHideFlags: 0
  m_CorrespondingSourceObject: {fileID: 0}
  m_PrefabInstance: {fileID: 0}
  m_PrefabAsset: {fileID: 0}
  m_GameObject: {fileID: 7094146136090432375}
  m_Enabled: 1
  m_EditorHideFlags: 0
  m_Script: {fileID: 11500000, guid: 0d915134fb374e745a96f48736ee3505, type: 3}
  m_Name: 
  m_EditorClassIdentifier: 
  sound: {fileID: 7180723047673368855}
  start: {fileID: 8300000, guid: de931d52f203b9347b0198be4e227814, type: 3}
  loop: {fileID: 8300000, guid: 58863ca4e570afe45a3311f415bcf3fb, type: 3}
  end: {fileID: 8300000, guid: 8e6ae16b57525274fbdcb645230cc99a, type: 3}
--- !u!114 &7180723047673368854
MonoBehaviour:
  m_ObjectHideFlags: 0
  m_CorrespondingSourceObject: {fileID: 0}
  m_PrefabInstance: {fileID: 0}
  m_PrefabAsset: {fileID: 0}
  m_GameObject: {fileID: 7094146136090432375}
  m_Enabled: 1
  m_EditorHideFlags: 0
  m_Script: {fileID: 11500000, guid: 2fc7fbd791df9734986391bfc29c3ef5, type: 3}
  m_Name: 
  m_EditorClassIdentifier: 
--- !u!114 &7094146137847505295
MonoBehaviour:
  m_ObjectHideFlags: 0
  m_CorrespondingSourceObject: {fileID: 0}
  m_PrefabInstance: {fileID: 0}
  m_PrefabAsset: {fileID: 0}
  m_GameObject: {fileID: 7094146136090432375}
  m_Enabled: 1
  m_EditorHideFlags: 0
  m_Script: {fileID: 11500000, guid: 3be707b5a2570d044a4e71c2baa10e91, type: 3}
  m_Name: 
  m_EditorClassIdentifier: 
  description: Cleaner
  onCollect:
    m_PersistentCalls:
      m_Calls: []
--- !u!114 &7094146137847505294
MonoBehaviour:
  m_ObjectHideFlags: 0
  m_CorrespondingSourceObject: {fileID: 0}
  m_PrefabInstance: {fileID: 0}
  m_PrefabAsset: {fileID: 0}
  m_GameObject: {fileID: 7094146136090432375}
  m_Enabled: 1
  m_EditorHideFlags: 0
  m_Script: {fileID: 11500000, guid: 089fb2e614b28964ca337c25a8f4f84e, type: 3}
  m_Name: 
  m_EditorClassIdentifier: 
  handlies:
  - phase: 0
    target: 1
    parent: 1
    setPos: 1
    setRot: 1
    posHandler: {fileID: 7094146137303422499}
    rotHandler: {fileID: 7094146137303422499}
    targetPos: {x: 0, y: 0, z: 0}
    targetRot: {x: 0, y: 0, z: 0}
  - phase: 1
    target: 1
    parent: 1
    setPos: 1
    setRot: 1
    posHandler: {fileID: 7094146137303422499}
    rotHandler: {fileID: 7094146137303422499}
    targetPos: {x: 0, y: 0, z: 0}
    targetRot: {x: 0, y: 0, z: 0}
  - phase: 1
    target: 2
    parent: 5
    setPos: 1
    setRot: 1
    posHandler: {fileID: 0}
    rotHandler: {fileID: 0}
    targetPos: {x: 0, y: 0, z: 1.2}
    targetRot: {x: 0, y: 0, z: 0}
  applyInterfaceTarget: 0
  onStartTake:
    m_PersistentCalls:
      m_Calls: []
  onBeforeTake:
    m_PersistentCalls:
      m_Calls: []
  onTaked:
    m_PersistentCalls:
      m_Calls:
      - m_Target: {fileID: 7180723047673368853}
        m_MethodName: Taked
        m_Mode: 1
        m_Arguments:
          m_ObjectArgument: {fileID: 0}
          m_ObjectArgumentAssemblyTypeName: UnityEngine.Object, UnityEngine
          m_IntArgument: 0
          m_FloatArgument: 0
          m_StringArgument: 
          m_BoolArgument: 0
        m_CallState: 2
  onReleased:
    m_PersistentCalls:
      m_Calls:
      - m_Target: {fileID: 7180723047673368853}
        m_MethodName: Released
        m_Mode: 1
        m_Arguments:
          m_ObjectArgument: {fileID: 0}
          m_ObjectArgumentAssemblyTypeName: UnityEngine.Object, UnityEngine
          m_IntArgument: 0
          m_FloatArgument: 0
          m_StringArgument: 
          m_BoolArgument: 0
        m_CallState: 2
  blockHands: 1
  skipTakeAnimation: 1
  animateReachout: 1
  animateThrow: 1
  grip: 0.7
--- !u!1 &7094146137303422496
GameObject:
  m_ObjectHideFlags: 0
  m_CorrespondingSourceObject: {fileID: 0}
  m_PrefabInstance: {fileID: 0}
  m_PrefabAsset: {fileID: 0}
  serializedVersion: 6
  m_Component:
  - component: {fileID: 7094146137303422499}
  m_Layer: 10
  m_Name: Taker
  m_TagString: Untagged
  m_Icon: {fileID: 0}
  m_NavMeshLayer: 0
  m_StaticEditorFlags: 0
  m_IsActive: 1
--- !u!4 &7094146137303422499
Transform:
  m_ObjectHideFlags: 0
  m_CorrespondingSourceObject: {fileID: 0}
  m_PrefabInstance: {fileID: 0}
  m_PrefabAsset: {fileID: 0}
  m_GameObject: {fileID: 7094146137303422496}
  m_LocalRotation: {x: 0.6003342, y: -0.40236545, z: -0.48806328, w: -0.48938245}
  m_LocalPosition: {x: 0.056, y: 1.947, z: -0.714}
  m_LocalScale: {x: 1, y: 1, z: 1}
  m_Children: []
  m_Father: {fileID: 7094146137871157494}
  m_RootOrder: 0
  m_LocalEulerAnglesHint: {x: -78.622, y: -103.065, z: -178.429}
--- !u!1 &7094146137871157495
GameObject:
  m_ObjectHideFlags: 0
  m_CorrespondingSourceObject: {fileID: 0}
  m_PrefabInstance: {fileID: 0}
  m_PrefabAsset: {fileID: 0}
  serializedVersion: 6
  m_Component:
  - component: {fileID: 7094146137871157494}
  m_Layer: 10
  m_Name: Handlers
  m_TagString: Untagged
  m_Icon: {fileID: 0}
  m_NavMeshLayer: 0
  m_StaticEditorFlags: 0
  m_IsActive: 1
--- !u!4 &7094146137871157494
Transform:
  m_ObjectHideFlags: 0
  m_CorrespondingSourceObject: {fileID: 0}
  m_PrefabInstance: {fileID: 0}
  m_PrefabAsset: {fileID: 0}
  m_GameObject: {fileID: 7094146137871157495}
  m_LocalRotation: {x: 0, y: 0, z: 0, w: 1}
  m_LocalPosition: {x: 0, y: 0, z: 0}
  m_LocalScale: {x: 1, y: 1, z: 1}
  m_Children:
  - {fileID: 7094146137303422499}
  m_Father: {fileID: 7094146136090690743}
  m_RootOrder: 0
  m_LocalEulerAnglesHint: {x: 0, y: 0, z: 0}
