%YAML 1.1
%TAG !u! tag:unity3d.com,2011:
--- !u!1 &6339559020664330498
GameObject:
  m_ObjectHideFlags: 0
  m_CorrespondingSourceObject: {fileID: 0}
  m_PrefabInstance: {fileID: 0}
  m_PrefabAsset: {fileID: 0}
  serializedVersion: 6
  m_Component:
  - component: {fileID: 1955127580152872364}
  - component: {fileID: 7779506366929946023}
  m_Layer: 0
  m_Name: BoosterHusband
  m_TagString: Untagged
  m_Icon: {fileID: 0}
  m_NavMeshLayer: 0
  m_StaticEditorFlags: 0
  m_IsActive: 1
--- !u!4 &1955127580152872364
Transform:
  m_ObjectHideFlags: 0
  m_CorrespondingSourceObject: {fileID: 0}
  m_PrefabInstance: {fileID: 0}
  m_PrefabAsset: {fileID: 0}
  m_GameObject: {fileID: 6339559020664330498}
  m_LocalRotation: {x: 0, y: 0, z: 0, w: 1}
  m_LocalPosition: {x: 397.8154, y: 269.42267, z: -189.77197}
  m_LocalScale: {x: 1, y: 1, z: 1}
  m_Children: []
  m_Father: {fileID: 0}
  m_RootOrder: 0
  m_LocalEulerAnglesHint: {x: 0, y: 0, z: 0}
--- !u!114 &7779506366929946023
MonoBehaviour:
  m_ObjectHideFlags: 0
  m_CorrespondingSourceObject: {fileID: 0}
  m_PrefabInstance: {fileID: 0}
  m_PrefabAsset: {fileID: 0}
  m_GameObject: {fileID: 6339559020664330498}
  m_Enabled: 1
  m_EditorHideFlags: 0
  m_Script: {fileID: 11500000, guid: e161ab9325ce50a44953f27e30980805, type: 3}
  m_Name: 
  m_EditorClassIdentifier: 
  icon: {fileID: 21300000, guid: 30bf958d791d54d47b6b3c28879821e4, type: 3}
  smallIcon: {fileID: 21300000, guid: 66f04d5667803634ba05cc5168ac2f06, type: 3}
  description: "\u041C\u0443\u0436 \u0432\u043F\u0430\u0434\u0430\u0435\u0442 \u0432
    \u044F\u0440\u043E\u0441\u0442\u044C \u043D\u0430 20% \u043C\u0435\u0434\u043B\u0435\u043D\u043D\u0435\u0435."
  currency: 1
  price: 10
  onBuy:
    m_PersistentCalls:
      m_Calls: []
  shortDescription: "+20% \u043A \u0422\u0435\u0440\u043F\u0435\u043D\u0438\u044E"
  longDescription: "+20% \u043A \u0451\u043C\u043A\u043E\u0441\u0442\u0438 \u0448\u043A\u0430\u043B\u044B
    \u0422\u0435\u0440\u043F\u0435\u043D\u0438\u044F \u0443 \u043C\u0443\u0436\u0430
    \u0432 \u0442\u0435\u0447\u0435\u043D\u0438\u0435 \u044D\u0442\u043E\u0433\u043E
    \u0434\u043D\u044F"
