%YAML 1.1
%TAG !u! tag:unity3d.com,2011:
--- !u!1 &6084826040383276571
GameObject:
  m_ObjectHideFlags: 0
  m_CorrespondingSourceObject: {fileID: 0}
  m_PrefabInstance: {fileID: 0}
  m_PrefabAsset: {fileID: 0}
  serializedVersion: 6
  m_Component:
  - component: {fileID: 1744589554103428428}
  - component: {fileID: 6507363617465387165}
  m_Layer: 0
  m_Name: Reward9
  m_TagString: Untagged
  m_Icon: {fileID: 0}
  m_NavMeshLayer: 0
  m_StaticEditorFlags: 0
  m_IsActive: 1
--- !u!4 &1744589554103428428
Transform:
  m_ObjectHideFlags: 0
  m_CorrespondingSourceObject: {fileID: 0}
  m_PrefabInstance: {fileID: 0}
  m_PrefabAsset: {fileID: 0}
  m_GameObject: {fileID: 6084826040383276571}
  m_LocalRotation: {x: 0, y: 0, z: 0, w: 1}
  m_LocalPosition: {x: 272.35226, y: 409.82114, z: 13169.834}
  m_LocalScale: {x: 1, y: 1, z: 1}
  m_Children: []
  m_Father: {fileID: 0}
  m_RootOrder: 0
  m_LocalEulerAnglesHint: {x: 0, y: 0, z: 0}
--- !u!114 &6507363617465387165
MonoBehaviour:
  m_ObjectHideFlags: 0
  m_CorrespondingSourceObject: {fileID: 0}
  m_PrefabInstance: {fileID: 0}
  m_PrefabAsset: {fileID: 0}
  m_GameObject: {fileID: 6084826040383276571}
  m_Enabled: 1
  m_EditorHideFlags: 0
  m_Script: {fileID: 11500000, guid: afd9138f0733af04fae8415cb02d81b4, type: 3}
  m_Name: 
  m_EditorClassIdentifier: 
  rewardIcon: {fileID: 21300000, guid: 13c019b5025d99d4792b0ce5228b6883, type: 3}
  rewardAmount: 1000
  item: {fileID: 1764580001347902133, guid: 72ff8aa07ab43ac479b8ecf533a1a6cc, type: 3}
  description: 
